[2020-11-27 00:11:30.425168] response >> Array
(
    [headers_raw] => HTTP/1.1 200 
Cache-Control: private
Expires: Thu, 01 Jan 1970 00:00:00 GMT
Content-Type: text/plain;charset=ISO-8859-1
Content-Length: 2
Date: Fri, 27 Nov 2020 00:11:30 GMT


    [body_raw] => {}
    [body] => Array
        (
        )

    [curl_error] => 
    [http_code] => 200
    [last_url] => https://ecommerce-scripts.adscale.com/EcommerceProxy?shop_host=instant-beauty.co.uk
)

[2020-11-27 00:11:31.560902] response >> Array
(
    [headers_raw] => HTTP/1.1 200 
Cache-Control: private
Expires: Thu, 01 Jan 1970 00:00:00 GMT
Content-Type: text/plain;charset=ISO-8859-1
Content-Length: 2
Date: Fri, 27 Nov 2020 00:11:31 GMT


    [body_raw] => {}
    [body] => Array
        (
        )

    [curl_error] => 
    [http_code] => 200
    [last_url] => https://ecommerce-scripts.adscale.com/EcommerceProxy?shop_host=instant-beauty.co.uk
)

[2020-11-27 00:36:21.991826] response >> Array
(
    [headers_raw] => HTTP/1.1 200 
Cache-Control: private
Expires: Thu, 01 Jan 1970 00:00:00 GMT
Content-Type: text/plain;charset=ISO-8859-1
Content-Length: 2
Date: Fri, 27 Nov 2020 00:36:21 GMT


    [body_raw] => {}
    [body] => Array
        (
        )

    [curl_error] => 
    [http_code] => 200
    [last_url] => https://ecommerce-scripts.adscale.com/EcommerceProxy?shop_host=instant-beauty.co.uk
)

[2020-11-27 00:36:22.014075] response >> Array
(
    [headers_raw] => HTTP/1.1 200 
Cache-Control: private
Expires: Thu, 01 Jan 1970 00:00:00 GMT
Content-Type: text/plain;charset=ISO-8859-1
Content-Length: 2
Date: Fri, 27 Nov 2020 00:36:21 GMT


    [body_raw] => {}
    [body] => Array
        (
        )

    [curl_error] => 
    [http_code] => 200
    [last_url] => https://ecommerce-scripts.adscale.com/EcommerceProxy?shop_host=instant-beauty.co.uk
)

[2020-11-27 01:38:04.397732] response >> Array
(
    [headers_raw] => HTTP/1.1 200 
Cache-Control: private
Expires: Thu, 01 Jan 1970 00:00:00 GMT
Content-Type: text/plain;charset=ISO-8859-1
Content-Length: 2
Date: Fri, 27 Nov 2020 01:38:04 GMT


    [body_raw] => {}
    [body] => Array
        (
        )

    [curl_error] => 
    [http_code] => 200
    [last_url] => https://ecommerce-scripts.adscale.com/EcommerceProxy?shop_host=instant-beauty.co.uk
)

[2020-11-27 01:38:04.408502] response >> Array
(
    [headers_raw] => HTTP/1.1 200 
Cache-Control: private
Expires: Thu, 01 Jan 1970 00:00:00 GMT
Content-Type: text/plain;charset=ISO-8859-1
Content-Length: 2
Date: Fri, 27 Nov 2020 01:38:04 GMT


    [body_raw] => {}
    [body] => Array
        (
        )

    [curl_error] => 
    [http_code] => 200
    [last_url] => https://ecommerce-scripts.adscale.com/EcommerceProxy?shop_host=instant-beauty.co.uk
)

[2020-11-27 02:54:32.878765] response >> Array
(
    [headers_raw] => HTTP/1.1 200 
Cache-Control: private
Expires: Thu, 01 Jan 1970 00:00:00 GMT
Content-Type: text/plain;charset=ISO-8859-1
Content-Length: 2
Date: Fri, 27 Nov 2020 02:54:32 GMT


    [body_raw] => {}
    [body] => Array
        (
        )

    [curl_error] => 
    [http_code] => 200
    [last_url] => https://ecommerce-scripts.adscale.com/EcommerceProxy?shop_host=instant-beauty.co.uk
)

[2020-11-27 02:54:32.878869] response >> Array
(
    [headers_raw] => HTTP/1.1 200 
Cache-Control: private
Expires: Thu, 01 Jan 1970 00:00:00 GMT
Content-Type: text/plain;charset=ISO-8859-1
Content-Length: 2
Date: Fri, 27 Nov 2020 02:54:32 GMT


    [body_raw] => {}
    [body] => Array
        (
        )

    [curl_error] => 
    [http_code] => 200
    [last_url] => https://ecommerce-scripts.adscale.com/EcommerceProxy?shop_host=instant-beauty.co.uk
)

[2020-11-27 02:58:41.862195] response >> Array
(
    [headers_raw] => HTTP/1.1 200 
Cache-Control: private
Expires: Thu, 01 Jan 1970 00:00:00 GMT
Content-Type: text/plain;charset=ISO-8859-1
Content-Length: 2
Date: Fri, 27 Nov 2020 02:58:41 GMT


    [body_raw] => {}
    [body] => Array
        (
        )

    [curl_error] => 
    [http_code] => 200
    [last_url] => https://ecommerce-scripts.adscale.com/EcommerceProxy?shop_host=instant-beauty.co.uk
)

[2020-11-27 02:58:41.864718] response >> Array
(
    [headers_raw] => HTTP/1.1 200 
Cache-Control: private
Expires: Thu, 01 Jan 1970 00:00:00 GMT
Content-Type: text/plain;charset=ISO-8859-1
Content-Length: 2
Date: Fri, 27 Nov 2020 02:58:41 GMT


    [body_raw] => {}
    [body] => Array
        (
        )

    [curl_error] => 
    [http_code] => 200
    [last_url] => https://ecommerce-scripts.adscale.com/EcommerceProxy?shop_host=instant-beauty.co.uk
)

[2020-11-27 04:16:57.771231] response >> Array
(
    [headers_raw] => HTTP/1.1 200 
Cache-Control: private
Expires: Thu, 01 Jan 1970 00:00:00 GMT
Content-Type: text/plain;charset=ISO-8859-1
Content-Length: 2
Date: Fri, 27 Nov 2020 04:16:57 GMT


    [body_raw] => {}
    [body] => Array
        (
        )

    [curl_error] => 
    [http_code] => 200
    [last_url] => https://ecommerce-scripts.adscale.com/EcommerceProxy?shop_host=instant-beauty.co.uk
)

[2020-11-27 04:16:57.875806] response >> Array
(
    [headers_raw] => HTTP/1.1 200 
Cache-Control: private
Expires: Thu, 01 Jan 1970 00:00:00 GMT
Content-Type: text/plain;charset=ISO-8859-1
Content-Length: 2
Date: Fri, 27 Nov 2020 04:16:57 GMT


    [body_raw] => {}
    [body] => Array
        (
        )

    [curl_error] => 
    [http_code] => 200
    [last_url] => https://ecommerce-scripts.adscale.com/EcommerceProxy?shop_host=instant-beauty.co.uk
)

[2020-11-27 05:08:02.843389] response >> Array
(
    [headers_raw] => HTTP/1.1 200 
Cache-Control: private
Expires: Thu, 01 Jan 1970 00:00:00 GMT
Content-Type: text/plain;charset=ISO-8859-1
Content-Length: 15
Date: Fri, 27 Nov 2020 05:08:02 GMT


    [body_raw] => {"success":"1"}
    [body] => Array
        (
            [success] => 1
        )

    [curl_error] => 
    [http_code] => 200
    [last_url] => https://ecommerce-scripts.adscale.com/ecommerce/script/instant-beauty.co.uk/heartbeat
)

[2020-11-27 07:03:39.320009] response >> Array
(
    [headers_raw] => HTTP/1.1 200 
Cache-Control: private
Expires: Thu, 01 Jan 1970 00:00:00 GMT
Content-Type: text/plain;charset=ISO-8859-1
Content-Length: 2
Date: Fri, 27 Nov 2020 07:03:38 GMT


    [body_raw] => {}
    [body] => Array
        (
        )

    [curl_error] => 
    [http_code] => 200
    [last_url] => https://ecommerce-scripts.adscale.com/EcommerceProxy?shop_host=instant-beauty.co.uk
)

[2020-11-27 07:03:39.367402] response >> Array
(
    [headers_raw] => HTTP/1.1 200 
Cache-Control: private
Expires: Thu, 01 Jan 1970 00:00:00 GMT
Content-Type: text/plain;charset=ISO-8859-1
Content-Length: 2
Date: Fri, 27 Nov 2020 07:03:38 GMT


    [body_raw] => {}
    [body] => Array
        (
        )

    [curl_error] => 
    [http_code] => 200
    [last_url] => https://ecommerce-scripts.adscale.com/EcommerceProxy?shop_host=instant-beauty.co.uk
)

[2020-11-27 07:29:40.858067] response >> Array
(
    [headers_raw] => HTTP/1.1 200 
Cache-Control: private
Expires: Thu, 01 Jan 1970 00:00:00 GMT
Content-Type: text/plain;charset=ISO-8859-1
Content-Length: 2
Date: Fri, 27 Nov 2020 07:29:39 GMT


    [body_raw] => {}
    [body] => Array
        (
        )

    [curl_error] => 
    [http_code] => 200
    [last_url] => https://ecommerce-scripts.adscale.com/EcommerceProxy?shop_host=instant-beauty.co.uk
)

[2020-11-27 07:29:40.871758] response >> Array
(
    [headers_raw] => HTTP/1.1 200 
Cache-Control: private
Expires: Thu, 01 Jan 1970 00:00:00 GMT
Content-Type: text/plain;charset=ISO-8859-1
Content-Length: 2
Date: Fri, 27 Nov 2020 07:29:40 GMT


    [body_raw] => {}
    [body] => Array
        (
        )

    [curl_error] => 
    [http_code] => 200
    [last_url] => https://ecommerce-scripts.adscale.com/EcommerceProxy?shop_host=instant-beauty.co.uk
)

[2020-11-27 08:54:34.214817] response >> Array
(
    [headers_raw] => HTTP/1.1 200 
Cache-Control: private
Expires: Thu, 01 Jan 1970 00:00:00 GMT
Content-Type: text/plain;charset=ISO-8859-1
Content-Length: 2
Date: Fri, 27 Nov 2020 08:54:33 GMT


    [body_raw] => {}
    [body] => Array
        (
        )

    [curl_error] => 
    [http_code] => 200
    [last_url] => https://ecommerce-scripts.adscale.com/EcommerceProxy?shop_host=instant-beauty.co.uk
)

[2020-11-27 08:54:34.217503] response >> Array
(
    [headers_raw] => HTTP/1.1 200 
Cache-Control: private
Expires: Thu, 01 Jan 1970 00:00:00 GMT
Content-Type: text/plain;charset=ISO-8859-1
Content-Length: 2
Date: Fri, 27 Nov 2020 08:54:33 GMT


    [body_raw] => {}
    [body] => Array
        (
        )

    [curl_error] => 
    [http_code] => 200
    [last_url] => https://ecommerce-scripts.adscale.com/EcommerceProxy?shop_host=instant-beauty.co.uk
)

[2020-11-27 09:12:13.781995] response >> Array
(
    [headers_raw] => HTTP/1.1 200 
Cache-Control: private
Expires: Thu, 01 Jan 1970 00:00:00 GMT
Content-Type: text/plain;charset=ISO-8859-1
Content-Length: 2
Date: Fri, 27 Nov 2020 09:12:13 GMT


    [body_raw] => {}
    [body] => Array
        (
        )

    [curl_error] => 
    [http_code] => 200
    [last_url] => https://ecommerce-scripts.adscale.com/EcommerceProxy?shop_host=instant-beauty.co.uk
)

[2020-11-27 09:12:13.794918] response >> Array
(
    [headers_raw] => HTTP/1.1 200 
Cache-Control: private
Expires: Thu, 01 Jan 1970 00:00:00 GMT
Content-Type: text/plain;charset=ISO-8859-1
Content-Length: 2
Date: Fri, 27 Nov 2020 09:12:13 GMT


    [body_raw] => {}
    [body] => Array
        (
        )

    [curl_error] => 
    [http_code] => 200
    [last_url] => https://ecommerce-scripts.adscale.com/EcommerceProxy?shop_host=instant-beauty.co.uk
)

[2020-11-27 09:18:36.278394] response >> Array
(
    [headers_raw] => HTTP/1.1 200 
Cache-Control: private
Expires: Thu, 01 Jan 1970 00:00:00 GMT
Content-Type: text/plain;charset=ISO-8859-1
Content-Length: 2
Date: Fri, 27 Nov 2020 09:18:36 GMT


    [body_raw] => {}
    [body] => Array
        (
        )

    [curl_error] => 
    [http_code] => 200
    [last_url] => https://ecommerce-scripts.adscale.com/EcommerceProxy?shop_host=instant-beauty.co.uk
)

[2020-11-27 09:18:36.294552] response >> Array
(
    [headers_raw] => HTTP/1.1 200 
Cache-Control: private
Expires: Thu, 01 Jan 1970 00:00:00 GMT
Content-Type: text/plain;charset=ISO-8859-1
Content-Length: 2
Date: Fri, 27 Nov 2020 09:18:36 GMT


    [body_raw] => {}
    [body] => Array
        (
        )

    [curl_error] => 
    [http_code] => 200
    [last_url] => https://ecommerce-scripts.adscale.com/EcommerceProxy?shop_host=instant-beauty.co.uk
)

[2020-11-27 09:22:36.495701] response >> Array
(
    [headers_raw] => HTTP/1.1 200 
Cache-Control: private
Expires: Thu, 01 Jan 1970 00:00:00 GMT
Content-Type: text/plain;charset=ISO-8859-1
Content-Length: 2
Date: Fri, 27 Nov 2020 09:22:36 GMT


    [body_raw] => {}
    [body] => Array
        (
        )

    [curl_error] => 
    [http_code] => 200
    [last_url] => https://ecommerce-scripts.adscale.com/EcommerceProxy?shop_host=instant-beauty.co.uk
)

[2020-11-27 09:22:36.518187] response >> Array
(
    [headers_raw] => HTTP/1.1 200 
Cache-Control: private
Expires: Thu, 01 Jan 1970 00:00:00 GMT
Content-Type: text/plain;charset=ISO-8859-1
Content-Length: 2
Date: Fri, 27 Nov 2020 09:22:36 GMT


    [body_raw] => {}
    [body] => Array
        (
        )

    [curl_error] => 
    [http_code] => 200
    [last_url] => https://ecommerce-scripts.adscale.com/EcommerceProxy?shop_host=instant-beauty.co.uk
)

[2020-11-27 09:34:46.509845] response >> Array
(
    [headers_raw] => HTTP/1.1 200 
Cache-Control: private
Expires: Thu, 01 Jan 1970 00:00:00 GMT
Content-Type: text/plain;charset=ISO-8859-1
Content-Length: 2
Date: Fri, 27 Nov 2020 09:34:45 GMT


    [body_raw] => {}
    [body] => Array
        (
        )

    [curl_error] => 
    [http_code] => 200
    [last_url] => https://ecommerce-scripts.adscale.com/EcommerceProxy?shop_host=instant-beauty.co.uk
)

[2020-11-27 09:34:46.512697] response >> Array
(
    [headers_raw] => HTTP/1.1 200 
Cache-Control: private
Expires: Thu, 01 Jan 1970 00:00:00 GMT
Content-Type: text/plain;charset=ISO-8859-1
Content-Length: 2
Date: Fri, 27 Nov 2020 09:34:45 GMT


    [body_raw] => {}
    [body] => Array
        (
        )

    [curl_error] => 
    [http_code] => 200
    [last_url] => https://ecommerce-scripts.adscale.com/EcommerceProxy?shop_host=instant-beauty.co.uk
)

[2020-11-27 10:20:50.865993] response >> Array
(
    [headers_raw] => HTTP/1.1 200 
Cache-Control: private
Expires: Thu, 01 Jan 1970 00:00:00 GMT
Content-Type: text/plain;charset=ISO-8859-1
Content-Length: 2
Date: Fri, 27 Nov 2020 10:20:50 GMT


    [body_raw] => {}
    [body] => Array
        (
        )

    [curl_error] => 
    [http_code] => 200
    [last_url] => https://ecommerce-scripts.adscale.com/EcommerceProxy?shop_host=instant-beauty.co.uk
)

[2020-11-27 10:20:51.892277] response >> Array
(
    [headers_raw] => HTTP/1.1 200 
Cache-Control: private
Expires: Thu, 01 Jan 1970 00:00:00 GMT
Content-Type: text/plain;charset=ISO-8859-1
Content-Length: 2
Date: Fri, 27 Nov 2020 10:20:51 GMT


    [body_raw] => {}
    [body] => Array
        (
        )

    [curl_error] => 
    [http_code] => 200
    [last_url] => https://ecommerce-scripts.adscale.com/EcommerceProxy?shop_host=instant-beauty.co.uk
)

[2020-11-27 10:44:44.973781] response >> Array
(
    [headers_raw] => HTTP/1.1 200 
Cache-Control: private
Expires: Thu, 01 Jan 1970 00:00:00 GMT
Content-Type: text/plain;charset=ISO-8859-1
Content-Length: 2
Date: Fri, 27 Nov 2020 10:44:44 GMT


    [body_raw] => {}
    [body] => Array
        (
        )

    [curl_error] => 
    [http_code] => 200
    [last_url] => https://ecommerce-scripts.adscale.com/EcommerceProxy?shop_host=instant-beauty.co.uk
)

[2020-11-27 10:44:44.994535] response >> Array
(
    [headers_raw] => HTTP/1.1 200 
Cache-Control: private
Expires: Thu, 01 Jan 1970 00:00:00 GMT
Content-Type: text/plain;charset=ISO-8859-1
Content-Length: 2
Date: Fri, 27 Nov 2020 10:44:44 GMT


    [body_raw] => {}
    [body] => Array
        (
        )

    [curl_error] => 
    [http_code] => 200
    [last_url] => https://ecommerce-scripts.adscale.com/EcommerceProxy?shop_host=instant-beauty.co.uk
)

[2020-11-27 10:53:28.056478] response >> Array
(
    [headers_raw] => HTTP/1.1 200 
Cache-Control: private
Expires: Thu, 01 Jan 1970 00:00:00 GMT
Content-Type: text/plain;charset=ISO-8859-1
Content-Length: 2
Date: Fri, 27 Nov 2020 10:53:27 GMT


    [body_raw] => {}
    [body] => Array
        (
        )

    [curl_error] => 
    [http_code] => 200
    [last_url] => https://ecommerce-scripts.adscale.com/EcommerceProxy?shop_host=instant-beauty.co.uk
)

[2020-11-27 10:53:28.058659] response >> Array
(
    [headers_raw] => HTTP/1.1 200 
Cache-Control: private
Expires: Thu, 01 Jan 1970 00:00:00 GMT
Content-Type: text/plain;charset=ISO-8859-1
Content-Length: 2
Date: Fri, 27 Nov 2020 10:53:27 GMT


    [body_raw] => {}
    [body] => Array
        (
        )

    [curl_error] => 
    [http_code] => 200
    [last_url] => https://ecommerce-scripts.adscale.com/EcommerceProxy?shop_host=instant-beauty.co.uk
)

[2020-11-27 11:06:34.833420] response >> Array
(
    [headers_raw] => HTTP/1.1 200 
Cache-Control: private
Expires: Thu, 01 Jan 1970 00:00:00 GMT
Content-Type: text/plain;charset=ISO-8859-1
Content-Length: 15
Date: Fri, 27 Nov 2020 11:06:34 GMT


    [body_raw] => {"success":"1"}
    [body] => Array
        (
            [success] => 1
        )

    [curl_error] => 
    [http_code] => 200
    [last_url] => https://ecommerce-scripts.adscale.com/ecommerce/script/instant-beauty.co.uk/heartbeat
)

[2020-11-27 13:19:12.955768] response >> Array
(
    [headers_raw] => HTTP/1.1 200 
Cache-Control: private
Expires: Thu, 01 Jan 1970 00:00:00 GMT
Content-Type: text/plain;charset=ISO-8859-1
Content-Length: 2
Date: Fri, 27 Nov 2020 13:19:12 GMT


    [body_raw] => {}
    [body] => Array
        (
        )

    [curl_error] => 
    [http_code] => 200
    [last_url] => https://ecommerce-scripts.adscale.com/EcommerceProxy?shop_host=instant-beauty.co.uk
)

[2020-11-27 13:19:12.989151] response >> Array
(
    [headers_raw] => HTTP/1.1 200 
Cache-Control: private
Expires: Thu, 01 Jan 1970 00:00:00 GMT
Content-Type: text/plain;charset=ISO-8859-1
Content-Length: 2
Date: Fri, 27 Nov 2020 13:19:12 GMT


    [body_raw] => {}
    [body] => Array
        (
        )

    [curl_error] => 
    [http_code] => 200
    [last_url] => https://ecommerce-scripts.adscale.com/EcommerceProxy?shop_host=instant-beauty.co.uk
)

[2020-11-27 13:24:28.178173] response >> Array
(
    [headers_raw] => HTTP/1.1 200 
Cache-Control: private
Expires: Thu, 01 Jan 1970 00:00:00 GMT
Content-Type: text/plain;charset=ISO-8859-1
Content-Length: 2
Date: Fri, 27 Nov 2020 13:24:28 GMT


    [body_raw] => {}
    [body] => Array
        (
        )

    [curl_error] => 
    [http_code] => 200
    [last_url] => https://ecommerce-scripts.adscale.com/EcommerceProxy?shop_host=instant-beauty.co.uk
)

[2020-11-27 13:24:28.212220] response >> Array
(
    [headers_raw] => HTTP/1.1 200 
Cache-Control: private
Expires: Thu, 01 Jan 1970 00:00:00 GMT
Content-Type: text/plain;charset=ISO-8859-1
Content-Length: 2
Date: Fri, 27 Nov 2020 13:24:28 GMT


    [body_raw] => {}
    [body] => Array
        (
        )

    [curl_error] => 
    [http_code] => 200
    [last_url] => https://ecommerce-scripts.adscale.com/EcommerceProxy?shop_host=instant-beauty.co.uk
)

[2020-11-27 13:39:43.741414] response >> Array
(
    [headers_raw] => HTTP/1.1 200 
Cache-Control: private
Expires: Thu, 01 Jan 1970 00:00:00 GMT
Content-Type: text/plain;charset=ISO-8859-1
Content-Length: 2
Date: Fri, 27 Nov 2020 13:39:43 GMT


    [body_raw] => {}
    [body] => Array
        (
        )

    [curl_error] => 
    [http_code] => 200
    [last_url] => https://ecommerce-scripts.adscale.com/EcommerceProxy?shop_host=instant-beauty.co.uk
)

[2020-11-27 13:39:43.742326] response >> Array
(
    [headers_raw] => HTTP/1.1 200 
Cache-Control: private
Expires: Thu, 01 Jan 1970 00:00:00 GMT
Content-Type: text/plain;charset=ISO-8859-1
Content-Length: 2
Date: Fri, 27 Nov 2020 13:39:43 GMT


    [body_raw] => {}
    [body] => Array
        (
        )

    [curl_error] => 
    [http_code] => 200
    [last_url] => https://ecommerce-scripts.adscale.com/EcommerceProxy?shop_host=instant-beauty.co.uk
)

[2020-11-27 14:24:17.762290] response >> Array
(
    [headers_raw] => HTTP/1.1 200 
Cache-Control: private
Expires: Thu, 01 Jan 1970 00:00:00 GMT
Content-Type: text/plain;charset=ISO-8859-1
Content-Length: 2
Date: Fri, 27 Nov 2020 14:24:16 GMT


    [body_raw] => {}
    [body] => Array
        (
        )

    [curl_error] => 
    [http_code] => 200
    [last_url] => https://ecommerce-scripts.adscale.com/EcommerceProxy?shop_host=instant-beauty.co.uk
)

[2020-11-27 14:24:17.812711] response >> Array
(
    [headers_raw] => HTTP/1.1 200 
Cache-Control: private
Expires: Thu, 01 Jan 1970 00:00:00 GMT
Content-Type: text/plain;charset=ISO-8859-1
Content-Length: 2
Date: Fri, 27 Nov 2020 14:24:16 GMT


    [body_raw] => {}
    [body] => Array
        (
        )

    [curl_error] => 
    [http_code] => 200
    [last_url] => https://ecommerce-scripts.adscale.com/EcommerceProxy?shop_host=instant-beauty.co.uk
)

[2020-11-27 14:36:28.596019] response >> Array
(
    [headers_raw] => HTTP/1.1 200 
Cache-Control: private
Expires: Thu, 01 Jan 1970 00:00:00 GMT
Content-Type: text/plain;charset=ISO-8859-1
Content-Length: 2
Date: Fri, 27 Nov 2020 14:36:28 GMT


    [body_raw] => {}
    [body] => Array
        (
        )

    [curl_error] => 
    [http_code] => 200
    [last_url] => https://ecommerce-scripts.adscale.com/EcommerceProxy?shop_host=instant-beauty.co.uk
)

[2020-11-27 14:36:28.607146] response >> Array
(
    [headers_raw] => HTTP/1.1 200 
Cache-Control: private
Expires: Thu, 01 Jan 1970 00:00:00 GMT
Content-Type: text/plain;charset=ISO-8859-1
Content-Length: 2
Date: Fri, 27 Nov 2020 14:36:28 GMT


    [body_raw] => {}
    [body] => Array
        (
        )

    [curl_error] => 
    [http_code] => 200
    [last_url] => https://ecommerce-scripts.adscale.com/EcommerceProxy?shop_host=instant-beauty.co.uk
)

[2020-11-27 15:09:40.793127] response >> Array
(
    [headers_raw] => HTTP/1.1 200 
Cache-Control: private
Expires: Thu, 01 Jan 1970 00:00:00 GMT
Content-Type: text/plain;charset=ISO-8859-1
Content-Length: 2
Date: Fri, 27 Nov 2020 15:09:39 GMT


    [body_raw] => {}
    [body] => Array
        (
        )

    [curl_error] => 
    [http_code] => 200
    [last_url] => https://ecommerce-scripts.adscale.com/EcommerceProxy?shop_host=instant-beauty.co.uk
)

[2020-11-27 15:09:40.802850] response >> Array
(
    [headers_raw] => HTTP/1.1 200 
Cache-Control: private
Expires: Thu, 01 Jan 1970 00:00:00 GMT
Content-Type: text/plain;charset=ISO-8859-1
Content-Length: 2
Date: Fri, 27 Nov 2020 15:09:39 GMT


    [body_raw] => {}
    [body] => Array
        (
        )

    [curl_error] => 
    [http_code] => 200
    [last_url] => https://ecommerce-scripts.adscale.com/EcommerceProxy?shop_host=instant-beauty.co.uk
)

[2020-11-27 15:34:20.240273] response >> Array
(
    [headers_raw] => HTTP/1.1 200 
Cache-Control: private
Expires: Thu, 01 Jan 1970 00:00:00 GMT
Content-Type: text/plain;charset=ISO-8859-1
Content-Length: 2
Date: Fri, 27 Nov 2020 15:34:19 GMT


    [body_raw] => {}
    [body] => Array
        (
        )

    [curl_error] => 
    [http_code] => 200
    [last_url] => https://ecommerce-scripts.adscale.com/EcommerceProxy?shop_host=instant-beauty.co.uk
)

[2020-11-27 15:34:20.252319] response >> Array
(
    [headers_raw] => HTTP/1.1 200 
Cache-Control: private
Expires: Thu, 01 Jan 1970 00:00:00 GMT
Content-Type: text/plain;charset=ISO-8859-1
Content-Length: 2
Date: Fri, 27 Nov 2020 15:34:19 GMT


    [body_raw] => {}
    [body] => Array
        (
        )

    [curl_error] => 
    [http_code] => 200
    [last_url] => https://ecommerce-scripts.adscale.com/EcommerceProxy?shop_host=instant-beauty.co.uk
)

[2020-11-27 15:44:00.180061] response >> Array
(
    [headers_raw] => HTTP/1.1 200 
Cache-Control: private
Expires: Thu, 01 Jan 1970 00:00:00 GMT
Content-Type: text/plain;charset=ISO-8859-1
Content-Length: 2
Date: Fri, 27 Nov 2020 15:44:00 GMT


    [body_raw] => {}
    [body] => Array
        (
        )

    [curl_error] => 
    [http_code] => 200
    [last_url] => https://ecommerce-scripts.adscale.com/EcommerceProxy?shop_host=instant-beauty.co.uk
)

[2020-11-27 15:44:00.183594] response >> Array
(
    [headers_raw] => HTTP/1.1 200 
Cache-Control: private
Expires: Thu, 01 Jan 1970 00:00:00 GMT
Content-Type: text/plain;charset=ISO-8859-1
Content-Length: 2
Date: Fri, 27 Nov 2020 15:44:00 GMT


    [body_raw] => {}
    [body] => Array
        (
        )

    [curl_error] => 
    [http_code] => 200
    [last_url] => https://ecommerce-scripts.adscale.com/EcommerceProxy?shop_host=instant-beauty.co.uk
)

[2020-11-27 16:25:55.594585] response >> Array
(
    [headers_raw] => HTTP/1.1 200 
Cache-Control: private
Expires: Thu, 01 Jan 1970 00:00:00 GMT
Content-Type: text/plain;charset=ISO-8859-1
Content-Length: 2
Date: Fri, 27 Nov 2020 16:25:55 GMT


    [body_raw] => {}
    [body] => Array
        (
        )

    [curl_error] => 
    [http_code] => 200
    [last_url] => https://ecommerce-scripts.adscale.com/EcommerceProxy?shop_host=instant-beauty.co.uk
)

[2020-11-27 16:25:55.634130] response >> Array
(
    [headers_raw] => HTTP/1.1 200 
Cache-Control: private
Expires: Thu, 01 Jan 1970 00:00:00 GMT
Content-Type: text/plain;charset=ISO-8859-1
Content-Length: 2
Date: Fri, 27 Nov 2020 16:25:55 GMT


    [body_raw] => {}
    [body] => Array
        (
        )

    [curl_error] => 
    [http_code] => 200
    [last_url] => https://ecommerce-scripts.adscale.com/EcommerceProxy?shop_host=instant-beauty.co.uk
)

[2020-11-27 17:05:44.565016] response >> Array
(
    [headers_raw] => HTTP/1.1 200 
Cache-Control: private
Expires: Thu, 01 Jan 1970 00:00:00 GMT
Content-Type: text/plain;charset=ISO-8859-1
Content-Length: 15
Date: Fri, 27 Nov 2020 17:05:44 GMT


    [body_raw] => {"success":"1"}
    [body] => Array
        (
            [success] => 1
        )

    [curl_error] => 
    [http_code] => 200
    [last_url] => https://ecommerce-scripts.adscale.com/ecommerce/script/instant-beauty.co.uk/heartbeat
)

[2020-11-27 18:18:39.707767] response >> Array
(
    [headers_raw] => HTTP/1.1 200 
Cache-Control: private
Expires: Thu, 01 Jan 1970 00:00:00 GMT
Content-Type: text/plain;charset=ISO-8859-1
Content-Length: 2
Date: Fri, 27 Nov 2020 18:18:39 GMT


    [body_raw] => {}
    [body] => Array
        (
        )

    [curl_error] => 
    [http_code] => 200
    [last_url] => https://ecommerce-scripts.adscale.com/EcommerceProxy?shop_host=instant-beauty.co.uk
)

[2020-11-27 18:28:25.798739] response >> Array
(
    [headers_raw] => HTTP/1.1 200 
Cache-Control: private
Expires: Thu, 01 Jan 1970 00:00:00 GMT
Content-Type: text/plain;charset=ISO-8859-1
Content-Length: 2
Date: Fri, 27 Nov 2020 18:28:24 GMT


    [body_raw] => {}
    [body] => Array
        (
        )

    [curl_error] => 
    [http_code] => 200
    [last_url] => https://ecommerce-scripts.adscale.com/EcommerceProxy?shop_host=instant-beauty.co.uk
)

[2020-11-27 20:10:27.991225] response >> Array
(
    [headers_raw] => HTTP/1.1 200 
Cache-Control: private
Expires: Thu, 01 Jan 1970 00:00:00 GMT
Content-Type: text/plain;charset=ISO-8859-1
Content-Length: 2
Date: Fri, 27 Nov 2020 20:10:27 GMT


    [body_raw] => {}
    [body] => Array
        (
        )

    [curl_error] => 
    [http_code] => 200
    [last_url] => https://ecommerce-scripts.adscale.com/EcommerceProxy?shop_host=instant-beauty.co.uk
)

[2020-11-27 20:10:28.024739] response >> Array
(
    [headers_raw] => HTTP/1.1 200 
Cache-Control: private
Expires: Thu, 01 Jan 1970 00:00:00 GMT
Content-Type: text/plain;charset=ISO-8859-1
Content-Length: 2
Date: Fri, 27 Nov 2020 20:10:27 GMT


    [body_raw] => {}
    [body] => Array
        (
        )

    [curl_error] => 
    [http_code] => 200
    [last_url] => https://ecommerce-scripts.adscale.com/EcommerceProxy?shop_host=instant-beauty.co.uk
)

[2020-11-27 23:07:43.011399] response >> Array
(
    [headers_raw] => HTTP/1.1 200 
Cache-Control: private
Expires: Thu, 01 Jan 1970 00:00:00 GMT
Content-Type: text/plain;charset=ISO-8859-1
Content-Length: 15
Date: Fri, 27 Nov 2020 23:07:42 GMT


    [body_raw] => {"success":"1"}
    [body] => Array
        (
            [success] => 1
        )

    [curl_error] => 
    [http_code] => 200
    [last_url] => https://ecommerce-scripts.adscale.com/ecommerce/script/instant-beauty.co.uk/heartbeat
)

