[2020-11-07 03:29:14.933223] response >> Array
(
    [headers_raw] => HTTP/1.1 200 
Cache-Control: private
Expires: Thu, 01 Jan 1970 00:00:00 GMT
Content-Type: text/plain;charset=ISO-8859-1
Content-Length: 2
Date: Sat, 07 Nov 2020 03:29:14 GMT


    [body_raw] => {}
    [body] => Array
        (
        )

    [curl_error] => 
    [http_code] => 200
    [last_url] => https://ecommerce-scripts.adscale.com/EcommerceProxy?shop_host=instant-beauty.co.uk
)

[2020-11-07 03:29:14.977807] response >> Array
(
    [headers_raw] => HTTP/1.1 200 
Cache-Control: private
Expires: Thu, 01 Jan 1970 00:00:00 GMT
Content-Type: text/plain;charset=ISO-8859-1
Content-Length: 2
Date: Sat, 07 Nov 2020 03:29:14 GMT


    [body_raw] => {}
    [body] => Array
        (
        )

    [curl_error] => 
    [http_code] => 200
    [last_url] => https://ecommerce-scripts.adscale.com/EcommerceProxy?shop_host=instant-beauty.co.uk
)

[2020-11-07 05:05:45.864063] response >> Array
(
    [headers_raw] => HTTP/1.1 200 
Cache-Control: private
Expires: Thu, 01 Jan 1970 00:00:00 GMT
Content-Type: text/plain;charset=ISO-8859-1
Content-Length: 15
Date: Sat, 07 Nov 2020 05:05:45 GMT


    [body_raw] => {"success":"1"}
    [body] => Array
        (
            [success] => 1
        )

    [curl_error] => 
    [http_code] => 200
    [last_url] => https://ecommerce-scripts.adscale.com/ecommerce/script/instant-beauty.co.uk/heartbeat
)

[2020-11-07 08:57:36.720379] response >> Array
(
    [headers_raw] => HTTP/1.1 200 
Cache-Control: private
Expires: Thu, 01 Jan 1970 00:00:00 GMT
Content-Type: text/plain;charset=ISO-8859-1
Content-Length: 2
Date: Sat, 07 Nov 2020 08:57:35 GMT


    [body_raw] => {}
    [body] => Array
        (
        )

    [curl_error] => 
    [http_code] => 200
    [last_url] => https://ecommerce-scripts.adscale.com/EcommerceProxy?shop_host=instant-beauty.co.uk
)

[2020-11-07 08:57:36.726715] response >> Array
(
    [headers_raw] => HTTP/1.1 200 
Cache-Control: private
Expires: Thu, 01 Jan 1970 00:00:00 GMT
Content-Type: text/plain;charset=ISO-8859-1
Content-Length: 2
Date: Sat, 07 Nov 2020 08:57:35 GMT


    [body_raw] => {}
    [body] => Array
        (
        )

    [curl_error] => 
    [http_code] => 200
    [last_url] => https://ecommerce-scripts.adscale.com/EcommerceProxy?shop_host=instant-beauty.co.uk
)

[2020-11-07 10:00:53.281132] response >> Array
(
    [headers_raw] => HTTP/1.1 200 
Cache-Control: private
Expires: Thu, 01 Jan 1970 00:00:00 GMT
Content-Type: text/plain;charset=ISO-8859-1
Content-Length: 2
Date: Sat, 07 Nov 2020 10:00:53 GMT


    [body_raw] => {}
    [body] => Array
        (
        )

    [curl_error] => 
    [http_code] => 200
    [last_url] => https://ecommerce-scripts.adscale.com/EcommerceProxy?shop_host=instant-beauty.co.uk
)

[2020-11-07 10:00:53.289732] response >> Array
(
    [headers_raw] => HTTP/1.1 200 
Cache-Control: private
Expires: Thu, 01 Jan 1970 00:00:00 GMT
Content-Type: text/plain;charset=ISO-8859-1
Content-Length: 2
Date: Sat, 07 Nov 2020 10:00:53 GMT


    [body_raw] => {}
    [body] => Array
        (
        )

    [curl_error] => 
    [http_code] => 200
    [last_url] => https://ecommerce-scripts.adscale.com/EcommerceProxy?shop_host=instant-beauty.co.uk
)

[2020-11-07 10:22:53.060312] response >> Array
(
    [headers_raw] => HTTP/1.1 200 
Cache-Control: private
Expires: Thu, 01 Jan 1970 00:00:00 GMT
Content-Type: text/plain;charset=ISO-8859-1
Content-Length: 2
Date: Sat, 07 Nov 2020 10:22:52 GMT


    [body_raw] => {}
    [body] => Array
        (
        )

    [curl_error] => 
    [http_code] => 200
    [last_url] => https://ecommerce-scripts.adscale.com/EcommerceProxy?shop_host=instant-beauty.co.uk
)

[2020-11-07 10:22:53.067210] response >> Array
(
    [headers_raw] => HTTP/1.1 200 
Cache-Control: private
Expires: Thu, 01 Jan 1970 00:00:00 GMT
Content-Type: text/plain;charset=ISO-8859-1
Content-Length: 2
Date: Sat, 07 Nov 2020 10:22:52 GMT


    [body_raw] => {}
    [body] => Array
        (
        )

    [curl_error] => 
    [http_code] => 200
    [last_url] => https://ecommerce-scripts.adscale.com/EcommerceProxy?shop_host=instant-beauty.co.uk
)

[2020-11-07 10:25:21.108788] response >> Array
(
    [headers_raw] => HTTP/1.1 200 
Cache-Control: private
Expires: Thu, 01 Jan 1970 00:00:00 GMT
Content-Type: text/plain;charset=ISO-8859-1
Content-Length: 2
Date: Sat, 07 Nov 2020 10:25:20 GMT


    [body_raw] => {}
    [body] => Array
        (
        )

    [curl_error] => 
    [http_code] => 200
    [last_url] => https://ecommerce-scripts.adscale.com/EcommerceProxy?shop_host=instant-beauty.co.uk
)

[2020-11-07 10:25:21.115381] response >> Array
(
    [headers_raw] => HTTP/1.1 200 
Cache-Control: private
Expires: Thu, 01 Jan 1970 00:00:00 GMT
Content-Type: text/plain;charset=ISO-8859-1
Content-Length: 2
Date: Sat, 07 Nov 2020 10:25:20 GMT


    [body_raw] => {}
    [body] => Array
        (
        )

    [curl_error] => 
    [http_code] => 200
    [last_url] => https://ecommerce-scripts.adscale.com/EcommerceProxy?shop_host=instant-beauty.co.uk
)

[2020-11-07 11:05:44.409899] response >> Array
(
    [headers_raw] => HTTP/1.1 200 
Cache-Control: private
Expires: Thu, 01 Jan 1970 00:00:00 GMT
Content-Type: text/plain;charset=ISO-8859-1
Content-Length: 15
Date: Sat, 07 Nov 2020 11:05:44 GMT


    [body_raw] => {"success":"1"}
    [body] => Array
        (
            [success] => 1
        )

    [curl_error] => 
    [http_code] => 200
    [last_url] => https://ecommerce-scripts.adscale.com/ecommerce/script/instant-beauty.co.uk/heartbeat
)

[2020-11-07 11:29:03.657015] response >> Array
(
    [headers_raw] => HTTP/1.1 200 
Cache-Control: private
Expires: Thu, 01 Jan 1970 00:00:00 GMT
Content-Type: text/plain;charset=ISO-8859-1
Content-Length: 2
Date: Sat, 07 Nov 2020 11:29:02 GMT


    [body_raw] => {}
    [body] => Array
        (
        )

    [curl_error] => 
    [http_code] => 200
    [last_url] => https://ecommerce-scripts.adscale.com/EcommerceProxy?shop_host=instant-beauty.co.uk
)

[2020-11-07 11:29:03.658684] response >> Array
(
    [headers_raw] => HTTP/1.1 200 
Cache-Control: private
Expires: Thu, 01 Jan 1970 00:00:00 GMT
Content-Type: text/plain;charset=ISO-8859-1
Content-Length: 2
Date: Sat, 07 Nov 2020 11:29:02 GMT


    [body_raw] => {}
    [body] => Array
        (
        )

    [curl_error] => 
    [http_code] => 200
    [last_url] => https://ecommerce-scripts.adscale.com/EcommerceProxy?shop_host=instant-beauty.co.uk
)

[2020-11-07 12:24:05.743195] response >> Array
(
    [headers_raw] => HTTP/1.1 200 
Cache-Control: private
Expires: Thu, 01 Jan 1970 00:00:00 GMT
Content-Type: text/plain;charset=ISO-8859-1
Content-Length: 2
Date: Sat, 07 Nov 2020 12:24:05 GMT


    [body_raw] => {}
    [body] => Array
        (
        )

    [curl_error] => 
    [http_code] => 200
    [last_url] => https://ecommerce-scripts.adscale.com/EcommerceProxy?shop_host=instant-beauty.co.uk
)

[2020-11-07 12:24:05.788950] response >> Array
(
    [headers_raw] => HTTP/1.1 200 
Cache-Control: private
Expires: Thu, 01 Jan 1970 00:00:00 GMT
Content-Type: text/plain;charset=ISO-8859-1
Content-Length: 2
Date: Sat, 07 Nov 2020 12:24:05 GMT


    [body_raw] => {}
    [body] => Array
        (
        )

    [curl_error] => 
    [http_code] => 200
    [last_url] => https://ecommerce-scripts.adscale.com/EcommerceProxy?shop_host=instant-beauty.co.uk
)

[2020-11-07 12:56:44.833108] response >> Array
(
    [headers_raw] => HTTP/1.1 200 
Cache-Control: private
Expires: Thu, 01 Jan 1970 00:00:00 GMT
Content-Type: text/plain;charset=ISO-8859-1
Content-Length: 2
Date: Sat, 07 Nov 2020 12:56:44 GMT


    [body_raw] => {}
    [body] => Array
        (
        )

    [curl_error] => 
    [http_code] => 200
    [last_url] => https://ecommerce-scripts.adscale.com/EcommerceProxy?shop_host=instant-beauty.co.uk
)

[2020-11-07 12:56:44.850143] response >> Array
(
    [headers_raw] => HTTP/1.1 200 
Cache-Control: private
Expires: Thu, 01 Jan 1970 00:00:00 GMT
Content-Type: text/plain;charset=ISO-8859-1
Content-Length: 2
Date: Sat, 07 Nov 2020 12:56:44 GMT


    [body_raw] => {}
    [body] => Array
        (
        )

    [curl_error] => 
    [http_code] => 200
    [last_url] => https://ecommerce-scripts.adscale.com/EcommerceProxy?shop_host=instant-beauty.co.uk
)

[2020-11-07 14:36:46.308676] response >> Array
(
    [headers_raw] => HTTP/1.1 200 
Cache-Control: private
Expires: Thu, 01 Jan 1970 00:00:00 GMT
Content-Type: text/plain;charset=ISO-8859-1
Content-Length: 2
Date: Sat, 07 Nov 2020 14:36:45 GMT


    [body_raw] => {}
    [body] => Array
        (
        )

    [curl_error] => 
    [http_code] => 200
    [last_url] => https://ecommerce-scripts.adscale.com/EcommerceProxy?shop_host=instant-beauty.co.uk
)

[2020-11-07 14:36:46.346971] response >> Array
(
    [headers_raw] => HTTP/1.1 200 
Cache-Control: private
Expires: Thu, 01 Jan 1970 00:00:00 GMT
Content-Type: text/plain;charset=ISO-8859-1
Content-Length: 2
Date: Sat, 07 Nov 2020 14:36:45 GMT


    [body_raw] => {}
    [body] => Array
        (
        )

    [curl_error] => 
    [http_code] => 200
    [last_url] => https://ecommerce-scripts.adscale.com/EcommerceProxy?shop_host=instant-beauty.co.uk
)

[2020-11-07 15:08:10.916280] response >> Array
(
    [headers_raw] => HTTP/1.1 200 
Cache-Control: private
Expires: Thu, 01 Jan 1970 00:00:00 GMT
Content-Type: text/plain;charset=ISO-8859-1
Content-Length: 2
Date: Sat, 07 Nov 2020 15:08:10 GMT


    [body_raw] => {}
    [body] => Array
        (
        )

    [curl_error] => 
    [http_code] => 200
    [last_url] => https://ecommerce-scripts.adscale.com/EcommerceProxy?shop_host=instant-beauty.co.uk
)

[2020-11-07 15:08:10.930577] response >> Array
(
    [headers_raw] => HTTP/1.1 200 
Cache-Control: private
Expires: Thu, 01 Jan 1970 00:00:00 GMT
Content-Type: text/plain;charset=ISO-8859-1
Content-Length: 2
Date: Sat, 07 Nov 2020 15:08:10 GMT


    [body_raw] => {}
    [body] => Array
        (
        )

    [curl_error] => 
    [http_code] => 200
    [last_url] => https://ecommerce-scripts.adscale.com/EcommerceProxy?shop_host=instant-beauty.co.uk
)

[2020-11-07 15:33:10.407390] response >> Array
(
    [headers_raw] => HTTP/1.1 200 
Cache-Control: private
Expires: Thu, 01 Jan 1970 00:00:00 GMT
Content-Type: text/plain;charset=ISO-8859-1
Content-Length: 2
Date: Sat, 07 Nov 2020 15:33:09 GMT


    [body_raw] => {}
    [body] => Array
        (
        )

    [curl_error] => 
    [http_code] => 200
    [last_url] => https://ecommerce-scripts.adscale.com/EcommerceProxy?shop_host=instant-beauty.co.uk
)

[2020-11-07 15:33:10.415544] response >> Array
(
    [headers_raw] => HTTP/1.1 200 
Cache-Control: private
Expires: Thu, 01 Jan 1970 00:00:00 GMT
Content-Type: text/plain;charset=ISO-8859-1
Content-Length: 2
Date: Sat, 07 Nov 2020 15:33:09 GMT


    [body_raw] => {}
    [body] => Array
        (
        )

    [curl_error] => 
    [http_code] => 200
    [last_url] => https://ecommerce-scripts.adscale.com/EcommerceProxy?shop_host=instant-beauty.co.uk
)

[2020-11-07 17:05:44.572413] response >> Array
(
    [headers_raw] => HTTP/1.1 200 
Cache-Control: private
Expires: Thu, 01 Jan 1970 00:00:00 GMT
Content-Type: text/plain;charset=ISO-8859-1
Content-Length: 15
Date: Sat, 07 Nov 2020 17:05:43 GMT


    [body_raw] => {"success":"1"}
    [body] => Array
        (
            [success] => 1
        )

    [curl_error] => 
    [http_code] => 200
    [last_url] => https://ecommerce-scripts.adscale.com/ecommerce/script/instant-beauty.co.uk/heartbeat
)

[2020-11-07 23:05:43.659491] response >> Array
(
    [headers_raw] => HTTP/1.1 200 
Cache-Control: private
Expires: Thu, 01 Jan 1970 00:00:00 GMT
Content-Type: text/plain;charset=ISO-8859-1
Content-Length: 15
Date: Sat, 07 Nov 2020 23:05:43 GMT


    [body_raw] => {"success":"1"}
    [body] => Array
        (
            [success] => 1
        )

    [curl_error] => 
    [http_code] => 200
    [last_url] => https://ecommerce-scripts.adscale.com/ecommerce/script/instant-beauty.co.uk/heartbeat
)

