[2020-11-07 03:29:14.935295] API: SUCCESS [request_url(https://ecommerce-scripts.adscale.com/EcommerceProxy?shop_host=instant-beauty.co.uk)]
[2020-11-07 03:29:14.977905] API: SUCCESS [request_url(https://ecommerce-scripts.adscale.com/EcommerceProxy?shop_host=instant-beauty.co.uk)]
[2020-11-07 08:57:36.720516] API: SUCCESS [request_url(https://ecommerce-scripts.adscale.com/EcommerceProxy?shop_host=instant-beauty.co.uk)]
[2020-11-07 08:57:36.726820] API: SUCCESS [request_url(https://ecommerce-scripts.adscale.com/EcommerceProxy?shop_host=instant-beauty.co.uk)]
[2020-11-07 10:00:53.281230] API: SUCCESS [request_url(https://ecommerce-scripts.adscale.com/EcommerceProxy?shop_host=instant-beauty.co.uk)]
[2020-11-07 10:00:53.289871] API: SUCCESS [request_url(https://ecommerce-scripts.adscale.com/EcommerceProxy?shop_host=instant-beauty.co.uk)]
[2020-11-07 10:22:53.060405] API: SUCCESS [request_url(https://ecommerce-scripts.adscale.com/EcommerceProxy?shop_host=instant-beauty.co.uk)]
[2020-11-07 10:22:53.067301] API: SUCCESS [request_url(https://ecommerce-scripts.adscale.com/EcommerceProxy?shop_host=instant-beauty.co.uk)]
[2020-11-07 10:25:21.108889] API: SUCCESS [request_url(https://ecommerce-scripts.adscale.com/EcommerceProxy?shop_host=instant-beauty.co.uk)]
[2020-11-07 10:25:21.115473] API: SUCCESS [request_url(https://ecommerce-scripts.adscale.com/EcommerceProxy?shop_host=instant-beauty.co.uk)]
[2020-11-07 11:29:03.657156] API: SUCCESS [request_url(https://ecommerce-scripts.adscale.com/EcommerceProxy?shop_host=instant-beauty.co.uk)]
[2020-11-07 11:29:03.658781] API: SUCCESS [request_url(https://ecommerce-scripts.adscale.com/EcommerceProxy?shop_host=instant-beauty.co.uk)]
[2020-11-07 12:24:05.743304] API: SUCCESS [request_url(https://ecommerce-scripts.adscale.com/EcommerceProxy?shop_host=instant-beauty.co.uk)]
[2020-11-07 12:24:05.789062] API: SUCCESS [request_url(https://ecommerce-scripts.adscale.com/EcommerceProxy?shop_host=instant-beauty.co.uk)]
[2020-11-07 12:56:44.833209] API: SUCCESS [request_url(https://ecommerce-scripts.adscale.com/EcommerceProxy?shop_host=instant-beauty.co.uk)]
[2020-11-07 12:56:44.850261] API: SUCCESS [request_url(https://ecommerce-scripts.adscale.com/EcommerceProxy?shop_host=instant-beauty.co.uk)]
[2020-11-07 14:36:46.313947] API: SUCCESS [request_url(https://ecommerce-scripts.adscale.com/EcommerceProxy?shop_host=instant-beauty.co.uk)]
[2020-11-07 14:36:46.347119] API: SUCCESS [request_url(https://ecommerce-scripts.adscale.com/EcommerceProxy?shop_host=instant-beauty.co.uk)]
[2020-11-07 15:08:10.916380] API: SUCCESS [request_url(https://ecommerce-scripts.adscale.com/EcommerceProxy?shop_host=instant-beauty.co.uk)]
[2020-11-07 15:08:10.930694] API: SUCCESS [request_url(https://ecommerce-scripts.adscale.com/EcommerceProxy?shop_host=instant-beauty.co.uk)]
[2020-11-07 15:33:10.407500] API: SUCCESS [request_url(https://ecommerce-scripts.adscale.com/EcommerceProxy?shop_host=instant-beauty.co.uk)]
[2020-11-07 15:33:10.415637] API: SUCCESS [request_url(https://ecommerce-scripts.adscale.com/EcommerceProxy?shop_host=instant-beauty.co.uk)]
