11-23-2020 @ 10:19:23 - Retrieving page access token
11-23-2020 @ 10:19:23 - Retrieving page access token
11-23-2020 @ 10:19:23 - Array
(
    [data] => Array
        (
        )

)

11-23-2020 @ 10:19:23 - Array
(
    [data] => Array
        (
        )

)

