2020-11-26T03:01:17+00:00 NOTICE action_scheduler.queue_job :: MailChimp_WooCommerce_Single_Order starts in 90 seconds :: obj_id 43722
2020-11-26T03:01:27+00:00 NOTICE debug :: Order ID 43722 was pending and is now processing :: Array
(
    [new_order] => 1
    [tracking] => Array
        (
            [campaign_id] => 
            [landing_site] => https://www.instant-beauty.co.uk/product/instant-eyeshadow-5-pair-pack/?fbclid=IwAR38HH-wrPYmPTFl7qzrzAwjhHHww5_EvCyfbIfitIFEJ5x-uQacBw1WdAg
        )

)

2020-11-26T03:03:10+00:00 NOTICE order.member.updated :: Updated jhoysty@hotmail.com subscriber status to subscribed and language to en
2020-11-26T03:03:10+00:00 NOTICE order_submit.success :: addStoreOrder :: #43722 :: email: jhoysty@hotmail.com :: landing site https://www.instant-beauty.co.uk/product/instant-eyeshadow-5-pair-pack/?fbclid=IwAR38HH-wrPYmPTFl7qzrzAwjhHHww5_EvCyfbIfitIFEJ5x-uQacBw1WdAg
2020-11-26T03:40:28+00:00 NOTICE action_scheduler.queue_job :: MailChimp_WooCommerce_Single_Order starts in 90 seconds :: obj_id 43723
2020-11-26T03:40:37+00:00 NOTICE debug :: Order ID 43723 was pending and is now processing :: Array
(
    [new_order] => 1
    [tracking] => Array
        (
            [campaign_id] => 
            [landing_site] => https://www.instant-beauty.co.uk/product/instant-eyeshadow-5-pair-pack/?attribute_choose-colour=Smokey+Eyes&fbclid=IwAR1B9Vo6kyE9abqYRPmRxLMbhhd3_UGFywGbjSO_sZiZR7k1yYp7AwN4M98
        )

)

2020-11-26T03:43:16+00:00 NOTICE order.member.updated :: Updated Kellymercer1979@gmail.com subscriber status to subscribed and language to en
2020-11-26T03:43:16+00:00 NOTICE order_submit.success :: addStoreOrder :: #43723 :: email: Kellymercer1979@gmail.com :: landing site https://www.instant-beauty.co.uk/product/instant-eyeshadow-5-pair-pack/?attribute_choose-colour=Smokey+Eyes&fbclid=IwAR1B9Vo6kyE9abqYRPmRxLMbhhd3_UGFywGbjSO_sZiZR7k1yYp7AwN4M98
2020-11-26T07:20:05+00:00 NOTICE action_scheduler.queue_job :: MailChimp_WooCommerce_Single_Order starts in 90 seconds :: obj_id 43724
2020-11-26T07:20:15+00:00 NOTICE debug :: Order ID 43724 was pending and is now processing :: Array
(
    [new_order] => 1
    [tracking] => Array
        (
            [campaign_id] => 
            [landing_site] => https://www.instant-beauty.co.uk/product/instant-eyeshadow-5-pair-pack/?fbclid=IwAR0nAWdjJ6TBnGsBvbdxgwSic8j9X2TCK4fGJaBaHctHlYVdbD1-WNj_Rl4
        )

)

2020-11-26T07:21:51+00:00 NOTICE order.member.updated :: Updated Debra.Vinnicombe@btinternet.com subscriber status to subscribed and language to en
2020-11-26T07:21:51+00:00 NOTICE order_submit.success :: addStoreOrder :: #43724 :: email: Debra.Vinnicombe@btinternet.com :: landing site https://www.instant-beauty.co.uk/product/instant-eyeshadow-5-pair-pack/?fbclid=IwAR0nAWdjJ6TBnGsBvbdxgwSic8j9X2TCK4fGJaBaHctHlYVdbD1-WNj_Rl4
2020-11-26T07:34:00+00:00 NOTICE action_scheduler.queue_job :: MailChimp_WooCommerce_Single_Order starts in 90 seconds :: obj_id 43725
2020-11-26T07:34:09+00:00 NOTICE debug :: Order ID 43725 was pending and is now processing :: Array
(
    [new_order] => 1
    [tracking] => Array
        (
            [campaign_id] => 
            [landing_site] => https://www.instant-beauty.co.uk/product/instant-eyeshadow-5-pair-pack?gclid=CjwKCAiAnvj9BRA4EiwAuUMDf6SfSUbMItKZFtugDoDXfnmtSQeFDb0MR5mMVrdfD4hCQ-JO9kbslxoCTCUQAvD_BwE
        )

)

2020-11-26T07:36:07+00:00 NOTICE order.member.updated :: Updated labejide@gmail.com subscriber status to subscribed and language to en
2020-11-26T07:36:07+00:00 NOTICE order_submit.success :: addStoreOrder :: #43725 :: email: labejide@gmail.com :: landing site https://www.instant-beauty.co.uk/product/instant-eyeshadow-5-pair-pack?gclid=CjwKCAiAnvj9BRA4EiwAuUMDf6SfSUbMItKZFtugDoDXfnmtSQeFDb0MR5mMVrdfD4hCQ-JO9kbslxoCTCUQAvD_BwE
2020-11-26T08:27:03+00:00 NOTICE action_scheduler.queue_job :: MailChimp_WooCommerce_Single_Order starts in 90 seconds :: obj_id 43726
2020-11-26T08:27:10+00:00 NOTICE debug :: Order ID 43726 was pending and is now processing :: Array
(
    [new_order] => 1
    [tracking] => Array
        (
            [campaign_id] => 
            [landing_site] => https://www.instant-beauty.co.uk/shop/
        )

)

2020-11-26T08:29:05+00:00 NOTICE order.member.updated :: Updated kira_abadesso@hotmail.com subscriber status to subscribed and language to en
2020-11-26T08:29:05+00:00 NOTICE order_submit.success :: addStoreOrder :: #43726 :: email: kira_abadesso@hotmail.com :: landing site https://www.instant-beauty.co.uk/shop/
2020-11-26T08:38:13+00:00 NOTICE action_scheduler.queue_job :: MailChimp_WooCommerce_Cart_Update queued :: obj_id 384be84c95f3dc0715762fa082f2ed44
2020-11-26T08:38:13+00:00 NOTICE action_scheduler.queue_job :: MailChimp_WooCommerce_User_Submit queued :: obj_id 7452
2020-11-26T08:38:58+00:00 NOTICE member.sync :: Subscribed Member dmanderton01@virginmedia.com :: Array
(
    [status_if_new] => 1
    [merge_fields] => Array
        (
        )

)

2020-11-26T08:38:59+00:00 NOTICE abandoned_cart.success :: email: dmanderton01@virginmedia.com :: checkout_url: https://www.instant-beauty.co.uk/checkout/?mc_cart_id=384be84c95f3dc0715762fa082f2ed44
2020-11-26T08:38:59+00:00 NOTICE cart.member.updated :: Updated dmanderton01@virginmedia.com subscriber status to subscribed and language to en
2020-11-26T08:43:00+00:00 NOTICE action_scheduler.queue_job :: MailChimp_WooCommerce_Cart_Update queued :: obj_id 384be84c95f3dc0715762fa082f2ed44
2020-11-26T08:43:36+00:00 NOTICE abandoned_cart.success :: email: dmanderton01@virginmedia.com :: checkout_url: https://www.instant-beauty.co.uk/checkout/?mc_cart_id=384be84c95f3dc0715762fa082f2ed44
2020-11-26T08:44:06+00:00 NOTICE action_scheduler.queue_job :: MailChimp_WooCommerce_Cart_Update queued :: obj_id 384be84c95f3dc0715762fa082f2ed44
2020-11-26T08:44:59+00:00 NOTICE abandoned_cart.success :: email: dmanderton01@virginmedia.com :: checkout_url: https://www.instant-beauty.co.uk/checkout/?mc_cart_id=384be84c95f3dc0715762fa082f2ed44
2020-11-26T08:54:36+00:00 NOTICE action_scheduler.queue_job :: MailChimp_WooCommerce_Cart_Update queued :: obj_id 384be84c95f3dc0715762fa082f2ed44
2020-11-26T08:56:00+00:00 NOTICE abandoned_cart.success :: email: dmanderton01@virginmedia.com :: checkout_url: https://www.instant-beauty.co.uk/checkout/?mc_cart_id=384be84c95f3dc0715762fa082f2ed44
2020-11-26T08:56:19+00:00 NOTICE action_scheduler.queue_job :: MailChimp_WooCommerce_Cart_Update queued :: obj_id 384be84c95f3dc0715762fa082f2ed44
2020-11-26T08:57:01+00:00 NOTICE abandoned_cart.success :: email: dmanderton01@virginmedia.com :: checkout_url: https://www.instant-beauty.co.uk/checkout/?mc_cart_id=384be84c95f3dc0715762fa082f2ed44
2020-11-26T08:57:38+00:00 NOTICE action_scheduler.queue_job :: MailChimp_WooCommerce_Cart_Update queued :: obj_id 384be84c95f3dc0715762fa082f2ed44
2020-11-26T08:57:59+00:00 NOTICE abandoned_cart.success :: email: dmanderton01@virginmedia.com :: checkout_url: https://www.instant-beauty.co.uk/checkout/?mc_cart_id=384be84c95f3dc0715762fa082f2ed44
2020-11-26T08:58:16+00:00 NOTICE action_scheduler.queue_job :: MailChimp_WooCommerce_Cart_Update queued :: obj_id 384be84c95f3dc0715762fa082f2ed44
2020-11-26T08:58:38+00:00 NOTICE abandoned_cart.success :: email: dmanderton01@virginmedia.com :: checkout_url: https://www.instant-beauty.co.uk/checkout/?mc_cart_id=384be84c95f3dc0715762fa082f2ed44
2020-11-26T09:11:36+00:00 NOTICE action_scheduler.queue_job :: MailChimp_WooCommerce_Single_Order starts in 90 seconds :: obj_id 43727
2020-11-26T09:11:46+00:00 NOTICE debug :: Order ID 43727 was pending and is now processing :: Array
(
    [new_order] => 1
    [tracking] => Array
        (
            [campaign_id] => 
            [landing_site] => https://www.instant-beauty.co.uk/product/instant-eyeshadow-5-pair-pack/?attribute_choose-colour=Smokey+Eyes&fbclid=IwAR0eI_57Lhn6FzhNOeffCUR6CLZX-tDkl7w_3KmDaY799puhsyYPbIMYr1o
        )

)

2020-11-26T09:14:02+00:00 NOTICE order.member.updated :: Updated callowzoe@aol.com subscriber status to subscribed and language to en
2020-11-26T09:14:02+00:00 NOTICE order_submit.success :: addStoreOrder :: #43727 :: email: callowzoe@aol.com :: landing site https://www.instant-beauty.co.uk/product/instant-eyeshadow-5-pair-pack/?attribute_choose-colour=Smokey+Eyes&fbclid=IwAR0eI_57Lhn6FzhNOeffCUR6CLZX-tDkl7w_3KmDaY799puhsyYPbIMYr1o
2020-11-26T11:16:01+00:00 NOTICE action_scheduler.queue_job :: MailChimp_WooCommerce_Single_Order starts in 90 seconds :: obj_id 43728
2020-11-26T11:18:08+00:00 NOTICE order.member.updated :: Updated ali_wendy2@yahoo.co.uk subscriber status to subscribed and language to en
2020-11-26T11:18:08+00:00 NOTICE order_submit.success :: addStoreOrder :: #43728 :: email: ali_wendy2@yahoo.co.uk :: landing site https://www.instant-beauty.co.uk/product/instant-eyeshadow-5-pair-pack/?attribute_choose-colour=Smokey+Eyes&fbclid=IwAR3O9tC1F8iOOOFJfZRrUFOCt3IY2pauDAxs-FXSeZIz16toyLWldudQISM
2020-11-26T11:21:30+00:00 NOTICE action_scheduler.queue_job :: MailChimp_WooCommerce_Single_Order starts in 90 seconds :: obj_id 43729
2020-11-26T11:23:35+00:00 NOTICE order.member.updated :: Updated ali_wendy2@yahoo.co.uk subscriber status to subscribed and language to en
2020-11-26T11:23:35+00:00 NOTICE order_submit.success :: addStoreOrder :: #43729 :: email: ali_wendy2@yahoo.co.uk :: landing site https://www.instant-beauty.co.uk/adscale/LastOrder
2020-11-26T12:34:35+00:00 NOTICE action_scheduler.queue_job :: MailChimp_WooCommerce_Single_Order starts in 90 seconds :: obj_id 43730
2020-11-26T12:37:04+00:00 NOTICE order.member.updated :: Updated rachelgrundypta@yahoo.com subscriber status to subscribed and language to en
2020-11-26T12:37:04+00:00 NOTICE order_submit.success :: addStoreOrder :: #43730 :: email: rachelgrundypta@yahoo.com :: landing site https://www.instant-beauty.co.uk/product/instant-eyeshadow-5-pair-pack/?attribute_choose-colour=Smokey+Eyes&fbclid=IwAR0u8KUGbS6xcbd9M_Yhp4VOmzFiGavHK2Ua-9el989LQvCw3mdGUxbo6Bc
2020-11-26T12:54:14+00:00 NOTICE action_scheduler.queue_job :: MailChimp_WooCommerce_Single_Order starts in 90 seconds :: obj_id 43731
2020-11-26T12:56:06+00:00 NOTICE order.member.updated :: Updated chris.luke@outlook.com subscriber status to subscribed and language to en
2020-11-26T12:56:06+00:00 NOTICE order_submit.success :: addStoreOrder :: #43731 :: email: chris.luke@outlook.com :: landing site https://www.instant-beauty.co.uk/product/instant-eyeshadow-5-pair-pack/?attribute_choose-colour=Smokey+Eyes&fbclid=IwAR1u4JmLdmov_yF4reDlADuurX0aLHA_hVTELyx7TlqbHeMA9bevo56zyrI
2020-11-26T13:05:12+00:00 NOTICE action_scheduler.queue_job :: MailChimp_WooCommerce_Single_Order starts in 90 seconds :: obj_id 43703
2020-11-26T13:05:16+00:00 NOTICE debug :: Order ID 43703 was processing and is now completed :: Array
(
    [new_order] => 
    [tracking] => 
)

2020-11-26T13:05:19+00:00 NOTICE action_scheduler.queue_job :: MailChimp_WooCommerce_Single_Order starts in 90 seconds :: obj_id 43704
2020-11-26T13:05:20+00:00 NOTICE debug :: Order ID 43704 was processing and is now completed :: Array
(
    [new_order] => 
    [tracking] => 
)

2020-11-26T13:05:23+00:00 NOTICE action_scheduler.queue_job :: MailChimp_WooCommerce_Single_Order starts in 90 seconds :: obj_id 43712
2020-11-26T13:05:24+00:00 NOTICE debug :: Order ID 43712 was processing and is now completed :: Array
(
    [new_order] => 
    [tracking] => 
)

2020-11-26T13:05:27+00:00 NOTICE action_scheduler.queue_job :: MailChimp_WooCommerce_Single_Order starts in 90 seconds :: obj_id 43721
2020-11-26T13:05:29+00:00 NOTICE debug :: Order ID 43721 was processing and is now completed :: Array
(
    [new_order] => 
    [tracking] => 
)

2020-11-26T13:05:31+00:00 NOTICE action_scheduler.queue_job :: MailChimp_WooCommerce_Single_Order starts in 90 seconds :: obj_id 43724
2020-11-26T13:05:33+00:00 NOTICE debug :: Order ID 43724 was processing and is now completed :: Array
(
    [new_order] => 
    [tracking] => 
)

2020-11-26T13:05:35+00:00 NOTICE action_scheduler.queue_job :: MailChimp_WooCommerce_Single_Order starts in 90 seconds :: obj_id 43723
2020-11-26T13:05:37+00:00 NOTICE debug :: Order ID 43723 was processing and is now completed :: Array
(
    [new_order] => 
    [tracking] => 
)

2020-11-26T13:07:03+00:00 NOTICE order.member.updated :: Updated mazzonijulie12@gmail.com subscriber status to subscribed and language to 
2020-11-26T13:07:03+00:00 NOTICE order_submit.success :: updateStoreOrder :: #43703 :: email: mazzonijulie12@gmail.com
2020-11-26T13:07:06+00:00 NOTICE order.member.updated :: Updated nickyjay42nj@gmail.com subscriber status to subscribed and language to 
2020-11-26T13:07:06+00:00 NOTICE order_submit.success :: updateStoreOrder :: #43704 :: email: nickyjay42nj@gmail.com
2020-11-26T13:07:10+00:00 NOTICE order.member.updated :: Updated michellesumby@hotmail.co.uk subscriber status to subscribed and language to 
2020-11-26T13:07:10+00:00 NOTICE order_submit.success :: updateStoreOrder :: #43712 :: email: michellesumby@hotmail.co.uk
2020-11-26T13:07:12+00:00 NOTICE order.member.updated :: Updated Trundells61@gmail.com subscriber status to subscribed and language to 
2020-11-26T13:07:12+00:00 NOTICE order_submit.success :: updateStoreOrder :: #43721 :: email: Trundells61@gmail.com
2020-11-26T13:07:14+00:00 NOTICE order.member.updated :: Updated Debra.Vinnicombe@btinternet.com subscriber status to subscribed and language to 
2020-11-26T13:07:14+00:00 NOTICE order_submit.success :: updateStoreOrder :: #43724 :: email: Debra.Vinnicombe@btinternet.com
2020-11-26T13:07:17+00:00 NOTICE order.member.updated :: Updated Kellymercer1979@gmail.com subscriber status to subscribed and language to 
2020-11-26T13:07:17+00:00 NOTICE order_submit.success :: updateStoreOrder :: #43723 :: email: Kellymercer1979@gmail.com
2020-11-26T13:10:08+00:00 NOTICE action_scheduler.queue_job :: MailChimp_WooCommerce_Single_Order starts in 90 seconds :: obj_id 43718
2020-11-26T13:10:12+00:00 NOTICE debug :: Order ID 43718 was processing and is now completed :: Array
(
    [new_order] => 
    [tracking] => 
)

2020-11-26T13:10:15+00:00 NOTICE action_scheduler.queue_job :: MailChimp_WooCommerce_Single_Order starts in 90 seconds :: obj_id 43715
2020-11-26T13:10:17+00:00 NOTICE debug :: Order ID 43715 was processing and is now completed :: Array
(
    [new_order] => 
    [tracking] => 
)

2020-11-26T13:10:19+00:00 NOTICE action_scheduler.queue_job :: MailChimp_WooCommerce_Single_Order starts in 90 seconds :: obj_id 43710
2020-11-26T13:10:23+00:00 NOTICE debug :: Order ID 43710 was processing and is now completed :: Array
(
    [new_order] => 
    [tracking] => 
)

2020-11-26T13:10:25+00:00 NOTICE action_scheduler.queue_job :: MailChimp_WooCommerce_Single_Order starts in 90 seconds :: obj_id 43722
2020-11-26T13:10:27+00:00 NOTICE debug :: Order ID 43722 was processing and is now completed :: Array
(
    [new_order] => 
    [tracking] => 
)

2020-11-26T13:10:34+00:00 NOTICE action_scheduler.queue_job :: MailChimp_WooCommerce_Single_Order starts in 90 seconds :: obj_id 43719
2020-11-26T13:10:37+00:00 NOTICE debug :: Order ID 43719 was processing and is now completed :: Array
(
    [new_order] => 
    [tracking] => 
)

2020-11-26T13:10:39+00:00 NOTICE action_scheduler.queue_job :: MailChimp_WooCommerce_Single_Order starts in 90 seconds :: obj_id 43717
2020-11-26T13:10:42+00:00 NOTICE debug :: Order ID 43717 was processing and is now completed :: Array
(
    [new_order] => 
    [tracking] => 
)

2020-11-26T13:10:44+00:00 NOTICE action_scheduler.queue_job :: MailChimp_WooCommerce_Single_Order starts in 90 seconds :: obj_id 43708
2020-11-26T13:10:48+00:00 NOTICE debug :: Order ID 43708 was processing and is now completed :: Array
(
    [new_order] => 
    [tracking] => 
)

2020-11-26T13:12:07+00:00 NOTICE order.member.updated :: Updated nicollemoffett@hotmail.co.uk subscriber status to subscribed and language to 
2020-11-26T13:12:07+00:00 NOTICE order_submit.success :: updateStoreOrder :: #43718 :: email: nicollemoffett@hotmail.co.uk
2020-11-26T13:12:09+00:00 NOTICE order.member.updated :: Updated jansar64@hotmail.com subscriber status to subscribed and language to 
2020-11-26T13:12:09+00:00 NOTICE order_submit.success :: updateStoreOrder :: #43715 :: email: jansar64@hotmail.com
2020-11-26T13:12:12+00:00 NOTICE order.member.updated :: Updated stressbag72@hotmail.com subscriber status to subscribed and language to 
2020-11-26T13:12:12+00:00 NOTICE order_submit.success :: updateStoreOrder :: #43710 :: email: stressbag72@hotmail.com
2020-11-26T13:12:14+00:00 NOTICE order.member.updated :: Updated jhoysty@hotmail.com subscriber status to subscribed and language to 
2020-11-26T13:12:14+00:00 NOTICE order_submit.success :: updateStoreOrder :: #43722 :: email: jhoysty@hotmail.com
2020-11-26T13:12:16+00:00 NOTICE order.member.updated :: Updated ccornish120@hotmail.co.uk subscriber status to subscribed and language to 
2020-11-26T13:12:16+00:00 NOTICE order_submit.success :: updateStoreOrder :: #43719 :: email: ccornish120@hotmail.co.uk
2020-11-26T13:12:18+00:00 NOTICE order.member.updated :: Updated lorettahutchings@hotmail.com subscriber status to subscribed and language to 
2020-11-26T13:12:18+00:00 NOTICE order_submit.success :: updateStoreOrder :: #43717 :: email: lorettahutchings@hotmail.com
2020-11-26T13:12:21+00:00 NOTICE order.member.updated :: Updated spanksbabes@yahoo.com subscriber status to subscribed and language to 
2020-11-26T13:12:21+00:00 NOTICE order_submit.success :: updateStoreOrder :: #43708 :: email: spanksbabes@yahoo.com
2020-11-26T13:40:44+00:00 NOTICE action_scheduler.queue_job :: MailChimp_WooCommerce_Single_Order starts in 90 seconds :: obj_id 43732
2020-11-26T13:43:06+00:00 NOTICE order.member.updated :: Updated gaillewis@hotmail.co.uk subscriber status to subscribed and language to en
2020-11-26T13:43:06+00:00 NOTICE order_submit.success :: addStoreOrder :: #43732 :: email: gaillewis@hotmail.co.uk :: landing site https://www.instant-beauty.co.uk/product/instant-eyeshadow-5-pair-pack/?attribute_choose-colour=Natural+Blond&fbclid=IwAR2-LEdtPwVmMJF2cfzuc9GRiK4Yb_RMACasfYYL2qaj96J0bjuNOIvH_CY
2020-11-26T14:20:13+00:00 NOTICE action_scheduler.queue_job :: MailChimp_WooCommerce_Single_Order starts in 90 seconds :: obj_id 43720
2020-11-26T14:20:19+00:00 NOTICE debug :: Order ID 43720 was processing and is now completed :: Array
(
    [new_order] => 
    [tracking] => 
)

2020-11-26T14:20:21+00:00 NOTICE action_scheduler.queue_job :: MailChimp_WooCommerce_Single_Order starts in 90 seconds :: obj_id 43707
2020-11-26T14:20:23+00:00 NOTICE debug :: Order ID 43707 was processing and is now completed :: Array
(
    [new_order] => 
    [tracking] => 
)

2020-11-26T14:20:26+00:00 NOTICE action_scheduler.queue_job :: MailChimp_WooCommerce_Single_Order starts in 90 seconds :: obj_id 43706
2020-11-26T14:20:28+00:00 NOTICE debug :: Order ID 43706 was processing and is now completed :: Array
(
    [new_order] => 
    [tracking] => 
)

2020-11-26T14:20:31+00:00 NOTICE action_scheduler.queue_job :: MailChimp_WooCommerce_Single_Order starts in 90 seconds :: obj_id 43705
2020-11-26T14:20:32+00:00 NOTICE debug :: Order ID 43705 was processing and is now completed :: Array
(
    [new_order] => 
    [tracking] => 
)

2020-11-26T14:20:35+00:00 NOTICE action_scheduler.queue_job :: MailChimp_WooCommerce_Single_Order starts in 90 seconds :: obj_id 43714
2020-11-26T14:20:36+00:00 NOTICE debug :: Order ID 43714 was processing and is now completed :: Array
(
    [new_order] => 
    [tracking] => 
)

2020-11-26T14:20:39+00:00 NOTICE action_scheduler.queue_job :: MailChimp_WooCommerce_Single_Order starts in 90 seconds :: obj_id 43711
2020-11-26T14:20:42+00:00 NOTICE debug :: Order ID 43711 was processing and is now completed :: Array
(
    [new_order] => 
    [tracking] => 
)

2020-11-26T14:20:44+00:00 NOTICE action_scheduler.queue_job :: MailChimp_WooCommerce_Single_Order starts in 90 seconds :: obj_id 43709
2020-11-26T14:20:46+00:00 NOTICE debug :: Order ID 43709 was processing and is now completed :: Array
(
    [new_order] => 
    [tracking] => 
)

2020-11-26T14:20:50+00:00 NOTICE action_scheduler.queue_job :: MailChimp_WooCommerce_Single_Order starts in 90 seconds :: obj_id 43702
2020-11-26T14:20:52+00:00 NOTICE debug :: Order ID 43702 was processing and is now completed :: Array
(
    [new_order] => 
    [tracking] => 
)

2020-11-26T14:22:02+00:00 NOTICE order.member.updated :: Updated emccrimmon@msn.com subscriber status to subscribed and language to 
2020-11-26T14:22:02+00:00 NOTICE order_submit.success :: updateStoreOrder :: #43720 :: email: emccrimmon@msn.com
2020-11-26T14:22:05+00:00 NOTICE order.member.updated :: Updated tbrowney13@gmail.com subscriber status to subscribed and language to 
2020-11-26T14:22:05+00:00 NOTICE order_submit.success :: updateStoreOrder :: #43707 :: email: tbrowney13@gmail.com
2020-11-26T14:22:08+00:00 NOTICE order.member.updated :: Updated samjones9095@yahoo.co.uk subscriber status to subscribed and language to 
2020-11-26T14:22:08+00:00 NOTICE order_submit.success :: updateStoreOrder :: #43706 :: email: samjones9095@yahoo.co.uk
2020-11-26T14:22:10+00:00 NOTICE order.member.updated :: Updated sjmcmailbox@gmail.com subscriber status to subscribed and language to 
2020-11-26T14:22:10+00:00 NOTICE order_submit.success :: updateStoreOrder :: #43705 :: email: sjmcmailbox@gmail.com
2020-11-26T14:22:13+00:00 NOTICE order.member.updated :: Updated natalie.flounders@icloud.com subscriber status to subscribed and language to 
2020-11-26T14:22:13+00:00 NOTICE order_submit.success :: updateStoreOrder :: #43714 :: email: natalie.flounders@icloud.com
2020-11-26T14:22:15+00:00 NOTICE order.member.updated :: Updated rachmerry1972@gmail.com subscriber status to subscribed and language to 
2020-11-26T14:22:15+00:00 NOTICE order_submit.success :: updateStoreOrder :: #43711 :: email: rachmerry1972@gmail.com
2020-11-26T14:22:17+00:00 NOTICE order.member.updated :: Updated charay232@hotmail.com subscriber status to subscribed and language to 
2020-11-26T14:22:17+00:00 NOTICE order_submit.success :: updateStoreOrder :: #43709 :: email: charay232@hotmail.com
2020-11-26T14:22:39+00:00 NOTICE order.member.updated :: Updated paulapaulahoward@yahoo.com subscriber status to subscribed and language to 
2020-11-26T14:22:39+00:00 NOTICE order_submit.success :: updateStoreOrder :: #43702 :: email: paulapaulahoward@yahoo.com
2020-11-26T14:23:39+00:00 NOTICE action_scheduler.queue_job :: MailChimp_WooCommerce_Single_Order starts in 90 seconds :: obj_id 43733
2020-11-26T14:26:05+00:00 NOTICE order.member.updated :: Updated beverleyross@msn.com subscriber status to subscribed and language to en
2020-11-26T14:26:05+00:00 NOTICE order_submit.success :: addStoreOrder :: #43733 :: email: beverleyross@msn.com :: landing site https://www.instant-beauty.co.uk/product/instant-eyeshadow-5-pair-pack/?attribute_choose-colour=Smokey+Eyes&fbclid=IwAR2GDcDiYKgCoWrXLbLF_-u6i7YUw25o4Nj-557QtJdlwakss_8IajmteqQ
2020-11-26T14:40:59+00:00 NOTICE action_scheduler.queue_job :: MailChimp_WooCommerce_Single_Order starts in 90 seconds :: obj_id 43734
2020-11-26T14:43:02+00:00 NOTICE order.member.updated :: Updated sakkipeake@hotmail.co.uk subscriber status to subscribed and language to en
2020-11-26T14:43:02+00:00 NOTICE order_submit.success :: addStoreOrder :: #43734 :: email: sakkipeake@hotmail.co.uk :: landing site https://www.instant-beauty.co.uk/product/instant-eyeshadow-5-pair-pack/?attribute_choose-colour=Smokey+Eyes&fbclid=IwAR3oXoSOhFU1_YyIqDpQQ1b5k9zh8J0gpcbJNF2QN886BYX5T6N3SrToMx8
2020-11-26T15:30:21+00:00 NOTICE action_scheduler.queue_job :: MailChimp_WooCommerce_Single_Order starts in 90 seconds :: obj_id 43735
2020-11-26T15:31:58+00:00 NOTICE order.member.updated :: Updated susan7441@live.co.uk subscriber status to subscribed and language to en
2020-11-26T15:31:58+00:00 NOTICE order_submit.success :: addStoreOrder :: #43735 :: email: susan7441@live.co.uk :: landing site https://www.instant-beauty.co.uk/product/instant-eyeshadow-5-pair-pack/?fbclid=IwAR2Y_pIZcURDDqbnLlIpN1wv29xHwdS1-BybxwhkDLP_Om_a_ZTEoEv0bIQ
2020-11-26T15:38:54+00:00 NOTICE action_scheduler.queue_job :: MailChimp_WooCommerce_Single_Order starts in 90 seconds :: obj_id 43736
2020-11-26T15:40:31+00:00 NOTICE order.member.updated :: Updated mandi.lumby@icloud.com subscriber status to subscribed and language to en
2020-11-26T15:40:31+00:00 NOTICE order_submit.success :: addStoreOrder :: #43736 :: email: mandi.lumby@icloud.com :: landing site https://www.instant-beauty.co.uk/product/instant-eyeshadow-5-pair-pack/?attribute_choose-colour=Natural+Blond&fbclid=IwAR0iB4aro_YTEOlLfdULc87s5yjep-TsRgIjZ3hBmav0fLM-L_nvrZy1YPk
2020-11-26T15:42:01+00:00 NOTICE action_scheduler.queue_job :: MailChimp_WooCommerce_Single_Order starts in 90 seconds :: obj_id 43737
2020-11-26T15:46:25+00:00 NOTICE order.member.updated :: Updated mandi.lumby@icloud.com subscriber status to subscribed and language to en
2020-11-26T15:46:25+00:00 NOTICE order_submit.success :: addStoreOrder :: #43737 :: email: mandi.lumby@icloud.com :: landing site https://www.instant-beauty.co.uk/adscale/LastOrder
2020-11-26T15:46:53+00:00 NOTICE action_scheduler.queue_job :: MailChimp_WooCommerce_Single_Order starts in 90 seconds :: obj_id 43738
2020-11-26T15:47:56+00:00 NOTICE action_scheduler.queue_job :: MailChimp_WooCommerce_Single_Order starts in 90 seconds :: obj_id 43739
2020-11-26T15:48:59+00:00 NOTICE order_sumbit :: #43738 has a financial status of pending and was skipped.
2020-11-26T15:50:03+00:00 NOTICE order.member.updated :: Updated nannysar666@yahoo.co.uk subscriber status to subscribed and language to en
2020-11-26T15:50:03+00:00 NOTICE order_submit.success :: addStoreOrder :: #43739 :: email: nannysar666@yahoo.co.uk :: landing site https://www.instant-beauty.co.uk/product/instant-eyeshadow-5-pair-pack/?attribute_choose-colour=Smokey+Eyes&fbclid=IwAR223XXl4POefmxoSt1cMjhbAWlYufIQV-SCcKvoYMtmZpDIr8SsrILs7gY
2020-11-26T15:55:10+00:00 NOTICE action_scheduler.queue_job :: MailChimp_WooCommerce_Single_Order starts in 90 seconds :: obj_id 43731
2020-11-26T15:55:14+00:00 NOTICE debug :: Order ID 43731 was processing and is now completed :: Array
(
    [new_order] => 
    [tracking] => 
)

2020-11-26T15:55:16+00:00 NOTICE action_scheduler.queue_job :: MailChimp_WooCommerce_Single_Order starts in 90 seconds :: obj_id 43732
2020-11-26T15:55:18+00:00 NOTICE debug :: Order ID 43732 was processing and is now completed :: Array
(
    [new_order] => 
    [tracking] => 
)

2020-11-26T15:55:21+00:00 NOTICE action_scheduler.queue_job :: MailChimp_WooCommerce_Single_Order starts in 90 seconds :: obj_id 43730
2020-11-26T15:55:22+00:00 NOTICE debug :: Order ID 43730 was processing and is now completed :: Array
(
    [new_order] => 
    [tracking] => 
)

2020-11-26T15:57:04+00:00 NOTICE order.member.updated :: Updated chris.luke@outlook.com subscriber status to subscribed and language to 
2020-11-26T15:57:04+00:00 NOTICE order_submit.success :: updateStoreOrder :: #43731 :: email: chris.luke@outlook.com
2020-11-26T15:57:07+00:00 NOTICE order.member.updated :: Updated gaillewis@hotmail.co.uk subscriber status to subscribed and language to 
2020-11-26T15:57:07+00:00 NOTICE order_submit.success :: updateStoreOrder :: #43732 :: email: gaillewis@hotmail.co.uk
2020-11-26T15:57:09+00:00 NOTICE order.member.updated :: Updated rachelgrundypta@yahoo.com subscriber status to subscribed and language to 
2020-11-26T15:57:09+00:00 NOTICE order_submit.success :: updateStoreOrder :: #43730 :: email: rachelgrundypta@yahoo.com
2020-11-26T16:00:33+00:00 NOTICE action_scheduler.queue_job :: MailChimp_WooCommerce_Single_Order starts in 90 seconds :: obj_id 43716
2020-11-26T16:00:35+00:00 NOTICE debug :: Order ID 43716 was processing and is now completed :: Array
(
    [new_order] => 
    [tracking] => 
)

2020-11-26T16:00:37+00:00 NOTICE action_scheduler.queue_job :: MailChimp_WooCommerce_Single_Order starts in 90 seconds :: obj_id 43728
2020-11-26T16:00:39+00:00 NOTICE debug :: Order ID 43728 was processing and is now completed :: Array
(
    [new_order] => 
    [tracking] => 
)

2020-11-26T16:00:42+00:00 NOTICE action_scheduler.queue_job :: MailChimp_WooCommerce_Single_Order starts in 90 seconds :: obj_id 43729
2020-11-26T16:00:45+00:00 NOTICE debug :: Order ID 43729 was processing and is now completed :: Array
(
    [new_order] => 
    [tracking] => 
)

2020-11-26T16:00:48+00:00 NOTICE action_scheduler.queue_job :: MailChimp_WooCommerce_Single_Order starts in 90 seconds :: obj_id 43727
2020-11-26T16:00:49+00:00 NOTICE debug :: Order ID 43727 was processing and is now completed :: Array
(
    [new_order] => 
    [tracking] => 
)

2020-11-26T16:00:52+00:00 NOTICE action_scheduler.queue_job :: MailChimp_WooCommerce_Single_Order starts in 90 seconds :: obj_id 43713
2020-11-26T16:00:56+00:00 NOTICE debug :: Order ID 43713 was processing and is now completed :: Array
(
    [new_order] => 
    [tracking] => 
)

2020-11-26T16:00:59+00:00 NOTICE action_scheduler.queue_job :: MailChimp_WooCommerce_Single_Order starts in 90 seconds :: obj_id 43725
2020-11-26T16:01:02+00:00 NOTICE debug :: Order ID 43725 was processing and is now completed :: Array
(
    [new_order] => 
    [tracking] => 
)

2020-11-26T16:02:25+00:00 NOTICE order.member.updated :: Updated olivia.buckby@yahoo.com subscriber status to subscribed and language to 
2020-11-26T16:02:25+00:00 NOTICE order_submit.success :: updateStoreOrder :: #43716 :: email: olivia.buckby@yahoo.com
2020-11-26T16:02:28+00:00 NOTICE order.member.updated :: Updated ali_wendy2@yahoo.co.uk subscriber status to subscribed and language to 
2020-11-26T16:02:28+00:00 NOTICE order_submit.success :: updateStoreOrder :: #43728 :: email: ali_wendy2@yahoo.co.uk
2020-11-26T16:02:30+00:00 NOTICE order.member.updated :: Updated ali_wendy2@yahoo.co.uk subscriber status to subscribed and language to 
2020-11-26T16:02:30+00:00 NOTICE order_submit.success :: updateStoreOrder :: #43729 :: email: ali_wendy2@yahoo.co.uk
2020-11-26T16:02:33+00:00 NOTICE order.member.updated :: Updated callowzoe@aol.com subscriber status to subscribed and language to 
2020-11-26T16:02:33+00:00 NOTICE order_submit.success :: updateStoreOrder :: #43727 :: email: callowzoe@aol.com
2020-11-26T16:02:35+00:00 NOTICE order.member.updated :: Updated melaniecooper1975@icloud.com subscriber status to subscribed and language to 
2020-11-26T16:02:35+00:00 NOTICE order_submit.success :: updateStoreOrder :: #43713 :: email: melaniecooper1975@icloud.com
2020-11-26T16:02:38+00:00 NOTICE order.member.updated :: Updated labejide@gmail.com subscriber status to subscribed and language to 
2020-11-26T16:02:38+00:00 NOTICE order_submit.success :: updateStoreOrder :: #43725 :: email: labejide@gmail.com
2020-11-26T16:12:41+00:00 NOTICE action_scheduler.queue_job :: MailChimp_WooCommerce_Single_Order starts in 90 seconds :: obj_id 43740
2020-11-26T16:14:45+00:00 NOTICE order.member.updated :: Updated sarah_marie_lonie@hotmail.co.uk subscriber status to subscribed and language to en
2020-11-26T16:14:45+00:00 NOTICE order_submit.success :: addStoreOrder :: #43740 :: email: sarah_marie_lonie@hotmail.co.uk :: landing site https://www.instant-beauty.co.uk/product/instant-eyeshadow-5-pair-pack?gclid=EAIaIQobChMItcaSqMyg7QIVmu3tCh387wNDEAAYASAAEgJKsPD_BwE
2020-11-26T16:32:42+00:00 NOTICE action_scheduler.queue_job :: MailChimp_WooCommerce_Single_Order starts in 90 seconds :: obj_id 43736
2020-11-26T16:32:43+00:00 NOTICE debug :: Order ID 43736 was processing and is now on-hold :: Array
(
    [new_order] => 
    [tracking] => 
)

2020-11-26T16:34:34+00:00 NOTICE order.member.updated :: Updated mandi.lumby@icloud.com subscriber status to subscribed and language to 
2020-11-26T16:34:34+00:00 NOTICE order_submit.success :: updateStoreOrder :: #43736 :: email: mandi.lumby@icloud.com
2020-11-26T16:48:41+00:00 NOTICE action_scheduler.queue_job :: MailChimp_WooCommerce_Single_Order starts in 90 seconds :: obj_id 43741
2020-11-26T16:49:25+00:00 NOTICE action_scheduler.queue_job :: MailChimp_WooCommerce_Single_Order starts in 90 seconds :: obj_id 43742
2020-11-26T16:50:51+00:00 NOTICE order.member.updated :: Updated moragkop@yahoo.co.uk subscriber status to subscribed and language to en
2020-11-26T16:50:51+00:00 NOTICE order_submit.success :: addStoreOrder :: #43741 :: email: moragkop@yahoo.co.uk :: landing site https://www.instant-beauty.co.uk/product/instant-eyeshadow-5-pair-pack/?attribute_choose-colour=Natural+Blond&fbclid=IwAR2p-6Tqd0dIsRAUYPfknFVjELSE0wUd59mWUoCFpqkYuuG_05K9v7G8KLg
2020-11-26T16:50:58+00:00 NOTICE action_scheduler.queue_job :: MailChimp_WooCommerce_Single_Order starts in 90 seconds :: obj_id 43743
2020-11-26T16:51:02+00:00 NOTICE order.member.updated :: Updated samcwilde@hotmail.co.uk subscriber status to subscribed and language to en
2020-11-26T16:51:02+00:00 NOTICE order_submit.success :: addStoreOrder :: #43742 :: email: samcwilde@hotmail.co.uk :: landing site https://www.instant-beauty.co.uk/product/instant-eyeshadow-5-pair-pack/?attribute_choose-colour=Smokey+Eyes&fbclid=IwAR3K7-TSQdfY7ItYfPtcb1ACZz5W094JHsk_PNI5QCMBKxVaGx58huOZ9OE
2020-11-26T16:54:40+00:00 NOTICE order.member.updated :: Updated moragkop@yahoo.co.uk subscriber status to subscribed and language to en
2020-11-26T16:54:40+00:00 NOTICE order_submit.success :: addStoreOrder :: #43743 :: email: moragkop@yahoo.co.uk :: landing site https://www.instant-beauty.co.uk/adscale/LastOrder
2020-11-26T17:19:31+00:00 NOTICE action_scheduler.queue_job :: MailChimp_WooCommerce_Single_Order starts in 90 seconds :: obj_id 43744
2020-11-26T17:21:57+00:00 NOTICE order.member.updated :: Updated inbar_vaitz@hotmail.com subscriber status to subscribed and language to en
2020-11-26T17:21:57+00:00 NOTICE order_submit.success :: addStoreOrder :: #43744 :: email: inbar_vaitz@hotmail.com :: landing site https://www.instant-beauty.co.uk/wp-admin/admin-ajax.php
2020-11-26T17:39:35+00:00 NOTICE action_scheduler.queue_job :: MailChimp_WooCommerce_Single_Order starts in 90 seconds :: obj_id 43745
2020-11-26T17:40:10+00:00 NOTICE action_scheduler.queue_job :: MailChimp_WooCommerce_Single_Order starts in 90 seconds :: obj_id 43726
2020-11-26T17:40:12+00:00 NOTICE debug :: Order ID 43726 was processing and is now completed :: Array
(
    [new_order] => 
    [tracking] => 
)

2020-11-26T17:41:20+00:00 NOTICE order.member.updated :: Updated ginaharratt2008@gmail.com subscriber status to subscribed and language to en
2020-11-26T17:41:20+00:00 NOTICE order_submit.success :: addStoreOrder :: #43745 :: email: ginaharratt2008@gmail.com :: landing site https://www.instant-beauty.co.uk/product/eye-majic-instant-eyeshadow-20-pair-pack/?fbclid=IwAR1DeZ33A_zYnrcciFGpacCRVEniRNGsO8oGGpwbfqTUJ_Mb6nxNVIc1PRE
2020-11-26T17:42:10+00:00 NOTICE order.member.updated :: Updated kira_abadesso@hotmail.com subscriber status to subscribed and language to 
2020-11-26T17:42:10+00:00 NOTICE order_submit.success :: updateStoreOrder :: #43726 :: email: kira_abadesso@hotmail.com
2020-11-26T17:48:46+00:00 NOTICE action_scheduler.queue_job :: MailChimp_WooCommerce_Cart_Update queued :: obj_id 0db53901eca1472a8997a38a24b38d06
2020-11-26T17:48:59+00:00 NOTICE abandoned_cart.success :: email: tester@test.com :: checkout_url: https://www.instant-beauty.co.uk/checkout/?mc_cart_id=0db53901eca1472a8997a38a24b38d06
2020-11-26T17:49:00+00:00 NOTICE cart.member.updated :: Updated tester@test.com subscriber status to transactional and language to en
2020-11-26T17:57:26+00:00 NOTICE action_scheduler.queue_job :: MailChimp_WooCommerce_Cart_Update queued :: obj_id 63df9e265d39dc254eca217318475a6f
2020-11-26T17:57:59+00:00 NOTICE abandoned_cart.success :: email: sandrasambrook@gmail.com :: checkout_url: https://www.instant-beauty.co.uk/checkout/?mc_cart_id=63df9e265d39dc254eca217318475a6f
2020-11-26T17:57:59+00:00 NOTICE cart.member.updated :: Updated sandrasambrook@gmail.com subscriber status to transactional and language to en
2020-11-26T18:01:01+00:00 NOTICE action_scheduler.queue_job :: MailChimp_WooCommerce_Single_Order starts in 90 seconds :: obj_id 43746
2020-11-26T18:02:50+00:00 NOTICE action_scheduler.queue_job :: MailChimp_WooCommerce_Single_Order starts in 90 seconds :: obj_id 43747
2020-11-26T18:03:01+00:00 NOTICE order.member.updated :: Updated sandrasambrook@gmail.com subscriber status to subscribed and language to en
2020-11-26T18:03:01+00:00 NOTICE order_submit.success :: addStoreOrder :: #43746 :: email: sandrasambrook@gmail.com :: landing site https://www.instant-beauty.co.uk/product/instant-eyeshadow-5-pair-pack/?attribute_choose-colour=Romanesque&utm_source=Google%20Shopping&utm_campaign=%20vx&utm_medium=cpc&utm_term=671&gclid=Cj0KCQiAwf39BRCCARIsALXWETxjJIWZbWPHEbwBaOpNaSnhQ8b3o933cck2tussikey2gPDxOabAXoaArvLEALw_wcB :: abandoned cart deleted [63df9e265d39dc254eca217318475a6f]
2020-11-26T18:04:07+00:00 NOTICE action_scheduler.queue_job :: MailChimp_WooCommerce_Single_Order starts in 90 seconds :: obj_id 43748
2020-11-26T18:05:06+00:00 NOTICE order.member.updated :: Updated justinne.kelliher@sky.com subscriber status to subscribed and language to en
2020-11-26T18:05:06+00:00 NOTICE order_submit.success :: addStoreOrder :: #43747 :: email: justinne.kelliher@sky.com :: landing site https://www.instant-beauty.co.uk/product/instant-eyeshadow-5-pair-pack/?fbclid=IwAR3WkWKpnvPb5VQOxe3Tn0QyqoE4vnAQm8S_hKdjnwtpj4kU_MDg6v1HqAU
2020-11-26T18:06:07+00:00 NOTICE order.member.updated :: Updated sandrasambrook@gmail.com subscriber status to subscribed and language to en
2020-11-26T18:06:07+00:00 NOTICE order_submit.success :: addStoreOrder :: #43748 :: email: sandrasambrook@gmail.com :: landing site https://www.instant-beauty.co.uk/adscale/LastOrder
2020-11-26T18:06:26+00:00 NOTICE action_scheduler.queue_job :: MailChimp_WooCommerce_Single_Order starts in 90 seconds :: obj_id 43749
2020-11-26T18:08:17+00:00 NOTICE order.member.updated :: Updated sandrasambrook@gmail.com subscriber status to subscribed and language to en
2020-11-26T18:08:17+00:00 NOTICE order_submit.success :: addStoreOrder :: #43749 :: email: sandrasambrook@gmail.com :: landing site https://www.instant-beauty.co.uk/product/instant-eyeshadow-5-pair-pack/?attribute_choose-colour=Natural+Blond&fbclid=IwAR0dCW6yDiSB_sBO0SIGZZuBEsZOE0_GxKJjIKgt0kxCrMk7WiKJWpgG6pU
2020-11-26T18:27:50+00:00 NOTICE action_scheduler.queue_job :: MailChimp_WooCommerce_Cart_Update queued :: obj_id 03ae69c2fe60c0854896db448da638fb
2020-11-26T18:27:58+00:00 NOTICE abandoned_cart.success :: email: debi555@live.co.uk :: checkout_url: https://www.instant-beauty.co.uk/checkout/?mc_cart_id=03ae69c2fe60c0854896db448da638fb
2020-11-26T18:27:58+00:00 NOTICE cart.member.updated :: Updated debi555@live.co.uk subscriber status to archived and language to en
2020-11-26T18:28:07+00:00 NOTICE action_scheduler.queue_job :: MailChimp_WooCommerce_Cart_Update queued :: obj_id 03ae69c2fe60c0854896db448da638fb
2020-11-26T18:28:16+00:00 NOTICE abandoned_cart.success :: email: debi555@live.co.uk :: checkout_url: https://www.instant-beauty.co.uk/checkout/?mc_cart_id=03ae69c2fe60c0854896db448da638fb
2020-11-26T18:29:04+00:00 NOTICE action_scheduler.queue_job :: MailChimp_WooCommerce_Cart_Update queued :: obj_id 03ae69c2fe60c0854896db448da638fb
2020-11-26T18:29:26+00:00 NOTICE abandoned_cart.success :: email: debi555@live.co.uk :: checkout_url: https://www.instant-beauty.co.uk/checkout/?mc_cart_id=03ae69c2fe60c0854896db448da638fb
2020-11-26T18:29:33+00:00 NOTICE action_scheduler.queue_job :: MailChimp_WooCommerce_Cart_Update queued :: obj_id 03ae69c2fe60c0854896db448da638fb
2020-11-26T18:29:59+00:00 NOTICE abandoned_cart.success :: email: debi555@live.co.uk :: checkout_url: https://www.instant-beauty.co.uk/checkout/?mc_cart_id=03ae69c2fe60c0854896db448da638fb
2020-11-26T18:30:07+00:00 NOTICE action_scheduler.queue_job :: MailChimp_WooCommerce_Single_Order starts in 90 seconds :: obj_id 43750
2020-11-26T18:32:03+00:00 NOTICE order.member.updated :: Updated cturton1@hotmail.co.uk subscriber status to subscribed and language to en
2020-11-26T18:32:03+00:00 NOTICE order_submit.success :: addStoreOrder :: #43750 :: email: cturton1@hotmail.co.uk :: landing site https://www.instant-beauty.co.uk/product/instant-eyeshadow-5-pair-pack/?fbclid=IwAR11B_18xIj7CQH9Dv3qfRFhOgwrcMJJVfMFj9PJDW69jHjiJIzlPlGM7GM
2020-11-26T19:27:55+00:00 NOTICE action_scheduler.queue_job :: MailChimp_WooCommerce_Single_Order starts in 90 seconds :: obj_id 43751
2020-11-26T19:30:12+00:00 NOTICE order.member.updated :: Updated sharonmccall@hotmail.co.uk subscriber status to subscribed and language to en
2020-11-26T19:30:12+00:00 NOTICE order_submit.success :: addStoreOrder :: #43751 :: email: sharonmccall@hotmail.co.uk :: landing site https://www.instant-beauty.co.uk/product/instant-eyeshadow-5-pair-pack/?attribute_choose-colour=Natural+Blond&fbclid=IwAR3H88jfwVmIyt_CcNJumgfmImLkktlUAM3xoLyJn0OYdry0HARZmTkT5wk
2020-11-26T19:38:33+00:00 NOTICE action_scheduler.queue_job :: MailChimp_WooCommerce_Single_Order starts in 90 seconds :: obj_id 43752
2020-11-26T19:41:39+00:00 NOTICE order.member.updated :: Updated jillsheehan17@hotmail.com subscriber status to subscribed and language to en
2020-11-26T19:41:39+00:00 NOTICE order_submit.success :: addStoreOrder :: #43752 :: email: jillsheehan17@hotmail.com :: landing site https://www.instant-beauty.co.uk/product/instant-eyeshadow-5-pair-pack/?attribute_choose-colour=Smokey+Eyes&fbclid=IwAR0Kcqu_9rIk2fnb9hCB8mCBI3nJDlql_7h7eja04335DakyHGwxleMF4q4
2020-11-26T19:45:42+00:00 NOTICE action_scheduler.queue_job :: MailChimp_WooCommerce_Single_Order starts in 90 seconds :: obj_id 43753
2020-11-26T19:47:21+00:00 NOTICE order.member.updated :: Updated elizabethmccallum48@gmail.com subscriber status to subscribed and language to en
2020-11-26T19:47:21+00:00 NOTICE order_submit.success :: addStoreOrder :: #43753 :: email: elizabethmccallum48@gmail.com :: landing site https://www.instant-beauty.co.uk/product/instant-eyeshadow-5-pair-pack/?fbclid=IwAR1WQ0Xe3L4-DzSKsTyHSTkuCdrxYI8KCI55Dgg-GAlzAO_OFBRmqpkxyTU
2020-11-26T20:08:13+00:00 NOTICE action_scheduler.queue_job :: MailChimp_WooCommerce_Single_Order starts in 90 seconds :: obj_id 43754
2020-11-26T20:08:48+00:00 NOTICE action_scheduler.queue_job :: MailChimp_WooCommerce_Single_Order starts in 90 seconds :: obj_id 43755
2020-11-26T20:10:03+00:00 NOTICE order.member.updated :: Updated paulineblackie@sky.com subscriber status to subscribed and language to en
2020-11-26T20:10:03+00:00 NOTICE order_submit.success :: addStoreOrder :: #43754 :: email: paulineblackie@sky.com :: landing site https://www.instant-beauty.co.uk/product/instant-eyeshadow-5-pair-pack/?fbclid=IwAR0D-0xYJ9L0boct1UUyFcq1w4TlIowIIOE_0pmhdbvUCITz4kypO35v0GA
2020-11-26T20:10:47+00:00 NOTICE order.member.updated :: Updated carole.kerr63@hotmail.co.uk subscriber status to subscribed and language to en
2020-11-26T20:10:47+00:00 NOTICE order_submit.success :: addStoreOrder :: #43755 :: email: carole.kerr63@hotmail.co.uk :: landing site https://www.instant-beauty.co.uk/product/instant-eyeshadow-5-pair-pack/?fbclid=IwAR2_aFh85Suw5UWoeN8uQGGKVlDx1mfr3AC7XSph1xM1BwUCpJepiNdcitk
2020-11-26T20:12:18+00:00 NOTICE action_scheduler.queue_job :: MailChimp_WooCommerce_Single_Order starts in 90 seconds :: obj_id 43756
2020-11-26T20:14:06+00:00 NOTICE order.member.updated :: Updated shonamck23@hotmail.com subscriber status to subscribed and language to en
2020-11-26T20:14:06+00:00 NOTICE order_submit.success :: addStoreOrder :: #43756 :: email: shonamck23@hotmail.com :: landing site https://www.instant-beauty.co.uk/product/instant-eyeshadow-5-pair-pack/?attribute_choose-colour=Smokey+Eyes&fbclid=IwAR1I_vtIlAnfoTfWEvZurAZvM8KOZCfmD25nzv1nOR2Pmc4a4tLj7H-f-zI
2020-11-26T20:14:11+00:00 NOTICE action_scheduler.queue_job :: MailChimp_WooCommerce_Single_Order starts in 90 seconds :: obj_id 43757
2020-11-26T20:15:46+00:00 NOTICE order.member.updated :: Updated shonamck23@hotmail.com subscriber status to subscribed and language to en
2020-11-26T20:15:46+00:00 NOTICE order_submit.success :: addStoreOrder :: #43757 :: email: shonamck23@hotmail.com :: landing site https://www.instant-beauty.co.uk/adscale/LastOrder
2020-11-26T20:26:06+00:00 NOTICE action_scheduler.queue_job :: MailChimp_WooCommerce_Single_Order starts in 90 seconds :: obj_id 43758
2020-11-26T20:28:02+00:00 NOTICE order.member.updated :: Updated chidbaker@gmail.com subscriber status to subscribed and language to en
2020-11-26T20:28:02+00:00 NOTICE order_submit.success :: addStoreOrder :: #43758 :: email: chidbaker@gmail.com :: landing site https://www.instant-beauty.co.uk/product/instant-eyeshadow-5-pair-pack/?attribute_choose-colour=Natural+Blond&fbclid=IwAR0cr_1Hw2cxGc_frT0J3F93Y5MSqqk012xepGn57kIrD-8zGQnhjOazVnA
2020-11-26T21:10:18+00:00 NOTICE action_scheduler.queue_job :: MailChimp_WooCommerce_Single_Order starts in 90 seconds :: obj_id 43759
2020-11-26T21:12:02+00:00 NOTICE order.member.updated :: Updated Shellh14@gmail.com subscriber status to subscribed and language to en
2020-11-26T21:12:02+00:00 NOTICE order_submit.success :: addStoreOrder :: #43759 :: email: Shellh14@gmail.com :: landing site https://www.instant-beauty.co.uk/product/instant-eyeshadow-5-pair-pack/?attribute_choose-colour=Smokey+Eyes&fbclid=IwAR3dkwtQLt6K1k6xgZe8K4ye76-ytmC0u5-EbMzmhX8-013Frnty8_1iSHM
2020-11-26T21:12:52+00:00 NOTICE action_scheduler.queue_job :: MailChimp_WooCommerce_Single_Order starts in 90 seconds :: obj_id 43760
2020-11-26T21:15:01+00:00 NOTICE order.member.updated :: Updated Shellh14@gmail.com subscriber status to subscribed and language to en
2020-11-26T21:15:01+00:00 NOTICE order_submit.success :: addStoreOrder :: #43760 :: email: Shellh14@gmail.com :: landing site https://www.instant-beauty.co.uk/?wc-ajax=checkout&woo-paypal-return=1
2020-11-26T21:23:16+00:00 NOTICE action_scheduler.queue_job :: MailChimp_WooCommerce_Cart_Update queued :: obj_id 9ebfca327098a3219e64334fd15776ea
2020-11-26T21:23:36+00:00 NOTICE abandoned_cart.success :: email: philip.collins@hotmail.com :: checkout_url: https://www.instant-beauty.co.uk/checkout/?mc_cart_id=9ebfca327098a3219e64334fd15776ea
2020-11-26T21:23:36+00:00 NOTICE cart.member.updated :: Updated philip.collins@hotmail.com subscriber status to transactional and language to en
2020-11-26T21:23:52+00:00 NOTICE action_scheduler.queue_job :: MailChimp_WooCommerce_Single_Order starts in 90 seconds :: obj_id 43761
2020-11-26T21:25:19+00:00 NOTICE action_scheduler.queue_job :: MailChimp_WooCommerce_Single_Order starts in 90 seconds :: obj_id 43762
2020-11-26T21:25:43+00:00 NOTICE order.member.updated :: Updated annw401@gmail.com subscriber status to subscribed and language to en
2020-11-26T21:25:43+00:00 NOTICE order_submit.success :: addStoreOrder :: #43761 :: email: annw401@gmail.com :: landing site https://www.instant-beauty.co.uk/shop/
2020-11-26T21:26:46+00:00 NOTICE action_scheduler.queue_job :: MailChimp_WooCommerce_Single_Order starts in 90 seconds :: obj_id 43763
2020-11-26T21:27:02+00:00 NOTICE order.member.updated :: Updated annw401@gmail.com subscriber status to subscribed and language to en
2020-11-26T21:27:02+00:00 NOTICE order_submit.success :: addStoreOrder :: #43762 :: email: annw401@gmail.com :: landing site https://www.instant-beauty.co.uk/adscale/LastOrder
2020-11-26T21:27:13+00:00 NOTICE action_scheduler.queue_job :: MailChimp_WooCommerce_Single_Order starts in 90 seconds :: obj_id 43764
2020-11-26T21:29:00+00:00 NOTICE order_sumbit :: #43763 has a financial status of pending and was skipped.
2020-11-26T21:29:02+00:00 NOTICE order.member.updated :: Updated philip.collins@hotmail.com subscriber status to subscribed and language to en
2020-11-26T21:29:02+00:00 NOTICE order_submit.success :: addStoreOrder :: #43764 :: email: philip.collins@hotmail.com :: landing site https://www.instant-beauty.co.uk/shop/ :: abandoned cart deleted [9ebfca327098a3219e64334fd15776ea]
2020-11-26T21:55:55+00:00 NOTICE action_scheduler.queue_job :: MailChimp_WooCommerce_Single_Order starts in 90 seconds :: obj_id 43765
2020-11-26T21:58:01+00:00 NOTICE order.member.updated :: Updated claire79oconnor@yahoo.co.uk subscriber status to subscribed and language to en
2020-11-26T21:58:01+00:00 NOTICE order_submit.success :: addStoreOrder :: #43765 :: email: claire79oconnor@yahoo.co.uk :: landing site https://www.instant-beauty.co.uk/wp-admin/admin-ajax.php
2020-11-26T22:04:58+00:00 NOTICE action_scheduler.queue_job :: MailChimp_WooCommerce_Single_Order starts in 90 seconds :: obj_id 43766
2020-11-26T22:07:07+00:00 NOTICE order.member.updated :: Updated c.1.jordan@btinternet.com subscriber status to subscribed and language to en
2020-11-26T22:07:07+00:00 NOTICE order_submit.success :: addStoreOrder :: #43766 :: email: c.1.jordan@btinternet.com :: landing site https://www.instant-beauty.co.uk/product/instant-eyeshadow-5-pair-pack/?fbclid=IwAR2Swj9cCeoOxBZnOVsneyhjPsIVBTf3QKvKiOiNkHKZ0b_3H3JJoY-6nik
2020-11-26T22:52:23+00:00 NOTICE action_scheduler.queue_job :: MailChimp_WooCommerce_Cart_Update queued :: obj_id f06d40b58e5fe2cf099962827c362afe
2020-11-26T22:52:23+00:00 NOTICE action_scheduler.queue_job :: MailChimp_WooCommerce_Cart_Update queued :: obj_id f06d40b58e5fe2cf099962827c362afe
2020-11-26T22:52:58+00:00 NOTICE abandoned_cart.success :: email: margaretomahony2014@gmail.com :: checkout_url: https://www.instant-beauty.co.uk/checkout/?mc_cart_id=f06d40b58e5fe2cf099962827c362afe
2020-11-26T22:52:58+00:00 NOTICE cart.member.updated :: Updated margaretomahony2014@gmail.com subscriber status to transactional and language to en
2020-11-26T22:52:59+00:00 NOTICE abandoned_cart.success :: email: margaretomahony2014@gmail.com :: checkout_url: https://www.instant-beauty.co.uk/checkout/?mc_cart_id=f06d40b58e5fe2cf099962827c362afe
2020-11-26T22:55:43+00:00 NOTICE action_scheduler.queue_job :: MailChimp_WooCommerce_Single_Order starts in 90 seconds :: obj_id 43767
2020-11-26T22:58:14+00:00 NOTICE order.member.updated :: Updated margaretomahony2014@gmail.com subscriber status to subscribed and language to en
2020-11-26T22:58:14+00:00 NOTICE order_submit.success :: addStoreOrder :: #43767 :: email: margaretomahony2014@gmail.com :: landing site https://www.instant-beauty.co.uk/ :: abandoned cart deleted [f06d40b58e5fe2cf099962827c362afe]
2020-11-26T23:19:14+00:00 NOTICE action_scheduler.queue_job :: MailChimp_WooCommerce_Single_Order starts in 90 seconds :: obj_id 43768
2020-11-26T23:21:09+00:00 NOTICE order.member.updated :: Updated allisonwhittington@sky.com subscriber status to subscribed and language to en
2020-11-26T23:21:09+00:00 NOTICE order_submit.success :: addStoreOrder :: #43768 :: email: allisonwhittington@sky.com :: landing site https://www.instant-beauty.co.uk/product/instant-eyeshadow-5-pair-pack/?fbclid=IwAR2C4gwX5cQaLO-27vnBWmjQOKzBgDfgP4Cas4555x3k7nZWEIsAS40Ohtw
2020-11-26T23:22:07+00:00 NOTICE action_scheduler.queue_job :: MailChimp_WooCommerce_Single_Order starts in 90 seconds :: obj_id 43769
2020-11-26T23:26:09+00:00 NOTICE order.member.updated :: Updated allisonwhittington@sky.com subscriber status to subscribed and language to en
2020-11-26T23:26:09+00:00 NOTICE order_submit.success :: addStoreOrder :: #43769 :: email: allisonwhittington@sky.com :: landing site https://www.instant-beauty.co.uk/?wc-ajax=checkout&woo-paypal-return=1
