
October 21, 2019, 7:05 am
Array
(
    [PHP] => 7.1
    [Wordpress] => 5.2.3
    [WooCommerce] => 3.7.1
    [Plugin] => 6.6.6
)
Array
(
    [Single products] => 4
    [Variation products] => 34
    [Total products] => 38
    [Number projects] => 1
)
Array
(
    [0] => Array
        (
            [channel_hash] => d4cb75caae5a73ac6b01171816b33bfb
            [name] => Google Shopping
            [fields] => google_shopping
            [taxonomy] => google_shopping
            [utm_source] => Google Shopping
            [type] => Advertising
            [projectname] =>  vx
            [countries] => United Kingdom
            [product_variations] => on
            [fileformat] => xml
            [cron] => daily
            [step] => 100
            [project_hash] => SkfBKV6epCnq80LruYTdNUxWgxWJACkC
            [filename] => SkfBKV6epCnq80LruYTdNUxWgxWJACkC
            [external_file] => https://instant-beauty.co.uk/wp-content/uploads/woo-product-feed-pro/xml/SkfBKV6epCnq80LruYTdNUxWgxWJACkC.xml
            [query_log] => https://instant-beauty.co.uk/wp-content/uploads/woo-product-feed-pro/logs/query.log
            [query_output_log] => https://instant-beauty.co.uk/wp-content/uploads/woo-product-feed-pro/logs/query_output.log
            [attributes] => Array
                (
                    [0] => Array
                        (
                            [rowCount] => 0
                            [attribute] => g:id
                            [prefix] => 
                            [mapfrom] => id
                            [suffix] => 
                        )

                    [1] => Array
                        (
                            [rowCount] => 1
                            [attribute] => g:title
                            [prefix] => 
                            [mapfrom] => title
                            [suffix] => 
                        )

                    [2] => Array
                        (
                            [rowCount] => 2
                            [attribute] => g:description
                            [prefix] => 
                            [mapfrom] => description
                            [suffix] => 
                        )

                    [3] => Array
                        (
                            [rowCount] => 3
                            [attribute] => g:link
                            [prefix] => 
                            [mapfrom] => link
                            [suffix] => 
                        )

                    [4] => Array
                        (
                            [rowCount] => 4
                            [attribute] => g:image_link
                            [prefix] => 
                            [mapfrom] => image
                            [suffix] => 
                        )

                    [5] => Array
                        (
                            [rowCount] => 5
                            [attribute] => g:availability
                            [prefix] => 
                            [mapfrom] => availability
                            [suffix] => 
                        )

                    [6] => Array
                        (
                            [rowCount] => 6
                            [attribute] => g:price
                            [prefix] => GBP
                            [mapfrom] => price
                            [suffix] => 
                        )

                    [7] => Array
                        (
                            [rowCount] => 7
                            [attribute] => g:google_product_category
                            [prefix] => 
                            [mapfrom] => categories
                            [suffix] => 
                        )

                    [8] => Array
                        (
                            [rowCount] => 8
                            [attribute] => g:brand
                            [prefix] => 
                            [mapfrom] => Eye Majic
                            [static_value] => true
                            [suffix] => 
                        )

                    [9] => Array
                        (
                            [rowCount] => 9
                            [attribute] => g:gtin
                            [prefix] => 
                            [mapfrom] => custom_attributes_hwp_product_gtin
                            [suffix] => 
                        )

                    [10] => Array
                        (
                            [rowCount] => 10
                            [attribute] => g:mpn
                            [prefix] => 
                            [mapfrom] => sku
                            [suffix] => 
                        )

                    [11] => Array
                        (
                            [rowCount] => 11
                            [attribute] => g:identifier_exists
                            [prefix] => 
                            [mapfrom] => calculated
                            [suffix] => 
                        )

                    [12] => Array
                        (
                            [rowCount] => 12
                            [attribute] => g:condition
                            [prefix] => 
                            [mapfrom] => condition
                            [suffix] => 
                        )

                    [13] => Array
                        (
                            [rowCount] => 13
                            [attribute] => g:item_group_id
                            [prefix] => 
                            [mapfrom] => item_group_id
                            [suffix] => 
                        )

                    [15] => Array
                        (
                            [rowCount] => 15
                            [attribute] => g:additional_image_link
                            [prefix] => 
                            [mapfrom] => image_1
                            [suffix] => 
                        )

                    [16] => Array
                        (
                            [rowCount] => 16
                            [attribute] => g:additional_image_link
                            [prefix] => 
                            [mapfrom] => image_2
                            [suffix] => 
                        )

                    [17] => Array
                        (
                            [rowCount] => 17
                            [attribute] => g:additional_image_link
                            [prefix] => 
                            [mapfrom] => image_3
                            [suffix] => 
                        )

                    [18] => Array
                        (
                            [rowCount] => 18
                            [attribute] => g:additional_image_link
                            [prefix] => 
                            [mapfrom] => image_4
                            [suffix] => 
                        )

                    [19] => Array
                        (
                            [rowCount] => 19
                            [attribute] => g:additional_image_link
                            [prefix] => 
                            [mapfrom] => image_5
                            [suffix] => 
                        )

                    [20] => Array
                        (
                            [rowCount] => 20
                            [attribute] => g:color
                            [prefix] => 
                            [mapfrom] => custom_attributes_attribute_choose-colour
                            [suffix] => 
                        )

                    [21] => Array
                        (
                            [rowCount] => 21
                            [attribute] => g:shipping
                            [prefix] => 
                            [mapfrom] => shipping
                            [suffix] => 
                        )

                    [22] => Array
                        (
                            [rowCount] => 22
                            [attribute] => g:shipping_label
                            [prefix] => 
                            [mapfrom] => shipping_label
                            [suffix] => 
                        )

                )

            [addrow] => 2
            [utm_on] => on
            [utm_medium] => cpc
            [utm_campaign] =>  vx
            [utm_term] => id
            [utm_content] => 
            [woosea_page] => analytics
            [active] => 1
            [last_updated] => 20 Oct 2019 07:04
            [running] => ready
            [nr_products] => 38
            [nr_products_processed] => 0
            [history_products] => Array
                (
                    [25 Aug 2019 03:17] => 34
                    [25 Aug 2019 03:24] => 34
                    [25 Aug 2019 03:38] => 34
                    [25 Aug 2019 07:08] => 34
                    [26 Aug 2019 07:10] => 34
                    [27 Aug 2019 07:09] => 34
                    [28 Aug 2019 07:10] => 34
                    [29 Aug 2019 07:09] => 34
                    [30 Aug 2019 07:30] => 34
                    [31 Aug 2019 07:08] => 35
                    [01 Sep 2019 07:09] => 35
                    [02 Sep 2019 07:07] => 35
                    [03 Sep 2019 07:07] => 35
                    [04 Sep 2019 07:10] => 35
                    [05 Sep 2019 07:10] => 35
                    [06 Sep 2019 07:08] => 35
                    [07 Sep 2019 07:11] => 35
                    [08 Sep 2019 07:10] => 35
                    [09 Sep 2019 07:13] => 35
                    [10 Sep 2019 07:14] => 35
                    [11 Sep 2019 07:03] => 35
                    [11 Sep 2019 07:09] => 35
                    [12 Sep 2019 07:30] => 35
                    [13 Sep 2019 07:10] => 35
                    [14 Sep 2019 07:30] => 35
                    [15 Sep 2019 07:22] => 35
                    [16 Sep 2019 07:04] => 35
                    [16 Sep 2019 07:19] => 35
                    [17 Sep 2019 07:30] => 35
                    [18 Sep 2019 07:10] => 35
                    [19 Sep 2019 07:07] => 35
                    [19 Sep 2019 07:10] => 35
                    [20 Sep 2019 07:17] => 35
                    [21 Sep 2019 07:07] => 35
                    [22 Sep 2019 07:08] => 35
                    [22 Sep 2019 07:10] => 35
                    [23 Sep 2019 07:06] => 35
                    [23 Sep 2019 07:10] => 35
                    [24 Sep 2019 07:04] => 35
                    [24 Sep 2019 07:08] => 35
                    [25 Sep 2019 07:07] => 35
                    [26 Sep 2019 07:06] => 35
                    [26 Sep 2019 07:09] => 35
                    [27 Sep 2019 07:03] => 35
                    [27 Sep 2019 07:09] => 35
                    [28 Sep 2019 07:03] => 35
                    [28 Sep 2019 07:08] => 35
                    [29 Sep 2019 07:06] => 35
                    [29 Sep 2019 07:09] => 35
                    [30 Sep 2019 07:06] => 35
                    [30 Sep 2019 07:09] => 35
                    [01 Oct 2019 07:06] => 35
                    [02 Oct 2019 07:09] => 35
                    [03 Oct 2019 07:08] => 35
                    [04 Oct 2019 07:10] => 35
                    [05 Oct 2019 07:09] => 35
                    [05 Oct 2019 07:12] => 35
                    [06 Oct 2019 07:05] => 35
                    [06 Oct 2019 07:10] => 35
                    [07 Oct 2019 07:06] => 35
                    [07 Oct 2019 07:09] => 35
                    [08 Oct 2019 07:05] => 35
                    [08 Oct 2019 07:10] => 35
                    [09 Oct 2019 07:05] => 35
                    [09 Oct 2019 07:08] => 35
                    [10 Oct 2019 07:06] => 35
                    [11 Oct 2019 07:10] => 35
                    [12 Oct 2019 07:08] => 35
                    [12 Oct 2019 07:56] => 35
                    [13 Oct 2019 07:10] => 35
                    [13 Oct 2019 07:56] => 35
                    [14 Oct 2019 07:04] => 35
                    [14 Oct 2019 07:52] => 35
                    [15 Oct 2019 07:06] => 35
                    [15 Oct 2019 07:51] => 35
                    [16 Oct 2019 07:08] => 35
                    [16 Oct 2019 07:52] => 35
                    [17 Oct 2019 07:08] => 35
                    [17 Oct 2019 07:52] => 35
                    [18 Oct 2019 07:13] => 35
                    [18 Oct 2019 07:54] => 35
                    [19 Oct 2019 07:07] => 35
                    [20 Oct 2019 07:10] => 35
                )

        )

)
Array
(
)
